0.956589, cells: 1 x 1, blocks: 1 x 1, stride: 1 x 1, margin: 5, bins: 18 sign: 1, params.C: 0.700000 metric: euclid
0.958140, cells: 1 x 1, blocks: 1 x 1, stride: 1 x 1, margin: 5, bins: 18 sign: 1, params.C: 0.700000 metric: sum
0.958140, cells: 1 x 1, blocks: 1 x 1, stride: 1 x 1, margin: 5, bins: 12 sign: 1, params.C: 0.700000 metric: euclid
0.963566, cells: 1 x 1, blocks: 1 x 1, stride: 1 x 1, margin: 5, bins: 12 sign: 1, params.C: 0.700000 metric: sum
0.970543, cells: 1 x 1, blocks: 1 x 1, stride: 1 x 1, margin: 5, bins: 9 sign: 1, params.C: 0.700000 metric: euclid
0.970543, cells: 1 x 1, blocks: 1 x 1, stride: 1 x 1, margin: 5, bins: 9 sign: 1, params.C: 0.700000 metric: sum
0.972093, cells: 1 x 1, blocks: 1 x 2, stride: 1 x 1, margin: 5, bins: 9 sign: 1, params.C: 0.700000 metric: euclid
