0.962791, cells: 1 x 1, blocks: 1 x 1, stride: 1 x 1, margin: 6, bins: 18 sign: 1, params.C: 0.200000 metric: euclid
0.962791, cells: 1 x 1, blocks: 1 x 1, stride: 1 x 1, margin: 6, bins: 18 sign: 1, params.C: 0.500000 metric: euclid
0.962791, cells: 1 x 1, blocks: 1 x 1, stride: 1 x 1, margin: 6, bins: 18 sign: 1, params.C: 0.700000 metric: euclid
0.962791, cells: 1 x 1, blocks: 1 x 1, stride: 1 x 1, margin: 6, bins: 18 sign: 1, params.C: 0.750000 metric: euclid
0.962791, cells: 1 x 1, blocks: 1 x 1, stride: 1 x 1, margin: 6, bins: 18 sign: 1, params.C: 0.800000 metric: euclid
0.968992, cells: 1 x 1, blocks: 1 x 1, stride: 1 x 1, margin: 6, bins: 18 sign: 1, params.C: 0.200000 metric: sum
0.968992, cells: 1 x 1, blocks: 1 x 1, stride: 1 x 1, margin: 6, bins: 18 sign: 1, params.C: 0.500000 metric: sum
0.968992, cells: 1 x 1, blocks: 1 x 1, stride: 1 x 1, margin: 6, bins: 18 sign: 1, params.C: 0.700000 metric: sum
0.968992, cells: 1 x 1, blocks: 1 x 1, stride: 1 x 1, margin: 6, bins: 18 sign: 1, params.C: 0.750000 metric: sum
0.968992, cells: 1 x 1, blocks: 1 x 1, stride: 1 x 1, margin: 6, bins: 18 sign: 1, params.C: 0.800000 metric: sum
0.972093, cells: 1 x 1, blocks: 1 x 1, stride: 1 x 1, margin: 6, bins: 10 sign: 1, params.C: 0.200000 metric: sum
0.972093, cells: 1 x 1, blocks: 1 x 1, stride: 1 x 1, margin: 6, bins: 10 sign: 1, params.C: 0.500000 metric: sum
0.972093, cells: 1 x 1, blocks: 1 x 1, stride: 1 x 1, margin: 6, bins: 10 sign: 1, params.C: 0.700000 metric: sum
0.972093, cells: 1 x 1, blocks: 1 x 1, stride: 1 x 1, margin: 6, bins: 10 sign: 1, params.C: 0.750000 metric: sum
0.972093, cells: 1 x 1, blocks: 1 x 1, stride: 1 x 1, margin: 6, bins: 10 sign: 1, params.C: 0.800000 metric: sum
0.973643, cells: 1 x 1, blocks: 1 x 1, stride: 1 x 1, margin: 6, bins: 9 sign: 1, params.C: 0.200000 metric: euclid
0.973643, cells: 1 x 1, blocks: 1 x 1, stride: 1 x 1, margin: 6, bins: 9 sign: 1, params.C: 0.500000 metric: euclid
0.973643, cells: 1 x 1, blocks: 1 x 1, stride: 1 x 1, margin: 6, bins: 9 sign: 1, params.C: 0.700000 metric: euclid
0.973643, cells: 1 x 1, blocks: 1 x 1, stride: 1 x 1, margin: 6, bins: 9 sign: 1, params.C: 0.750000 metric: euclid
0.973643, cells: 1 x 1, blocks: 1 x 1, stride: 1 x 1, margin: 6, bins: 9 sign: 1, params.C: 0.800000 metric: euclid
