0.962791, cells: 1 x 1, blocks: 1 x 1, stride: 1 x 1, margin: 6, bins: 18 sign: 1, params.C: 0.200000 metric: euclid
0.962791, cells: 1 x 1, blocks: 1 x 1, stride: 1 x 1, margin: 6, bins: 18 sign: 1, params.C: 0.500000 metric: euclid
0.962791, cells: 1 x 1, blocks: 1 x 1, stride: 1 x 1, margin: 6, bins: 18 sign: 1, params.C: 0.700000 metric: euclid
0.962791, cells: 1 x 1, blocks: 1 x 1, stride: 1 x 1, margin: 6, bins: 18 sign: 1, params.C: 0.750000 metric: euclid
0.962791, cells: 1 x 1, blocks: 1 x 1, stride: 1 x 1, margin: 6, bins: 18 sign: 1, params.C: 0.800000 metric: euclid
0.953488, cells: 1 x 1, blocks: 1 x 1, stride: 1 x 1, margin: 6, bins: 18 sign: 1, params.C: 0.200000 metric: max
0.953488, cells: 1 x 1, blocks: 1 x 1, stride: 1 x 1, margin: 6, bins: 18 sign: 1, params.C: 0.500000 metric: max
0.953488, cells: 1 x 1, blocks: 1 x 1, stride: 1 x 1, margin: 6, bins: 18 sign: 1, params.C: 0.700000 metric: max
0.953488, cells: 1 x 1, blocks: 1 x 1, stride: 1 x 1, margin: 6, bins: 18 sign: 1, params.C: 0.750000 metric: max
0.953488, cells: 1 x 1, blocks: 1 x 1, stride: 1 x 1, margin: 6, bins: 18 sign: 1, params.C: 0.800000 metric: max
0.968992, cells: 1 x 1, blocks: 1 x 1, stride: 1 x 1, margin: 6, bins: 18 sign: 1, params.C: 0.200000 metric: sum
0.968992, cells: 1 x 1, blocks: 1 x 1, stride: 1 x 1, margin: 6, bins: 18 sign: 1, params.C: 0.500000 metric: sum
0.968992, cells: 1 x 1, blocks: 1 x 1, stride: 1 x 1, margin: 6, bins: 18 sign: 1, params.C: 0.700000 metric: sum
0.968992, cells: 1 x 1, blocks: 1 x 1, stride: 1 x 1, margin: 6, bins: 18 sign: 1, params.C: 0.750000 metric: sum
0.968992, cells: 1 x 1, blocks: 1 x 1, stride: 1 x 1, margin: 6, bins: 18 sign: 1, params.C: 0.800000 metric: sum
0.965891, cells: 1 x 1, blocks: 1 x 1, stride: 1 x 1, margin: 6, bins: 10 sign: 1, params.C: 0.200000 metric: euclid
0.965891, cells: 1 x 1, blocks: 1 x 1, stride: 1 x 1, margin: 6, bins: 10 sign: 1, params.C: 0.500000 metric: euclid
0.965891, cells: 1 x 1, blocks: 1 x 1, stride: 1 x 1, margin: 6, bins: 10 sign: 1, params.C: 0.700000 metric: euclid
0.965891, cells: 1 x 1, blocks: 1 x 1, stride: 1 x 1, margin: 6, bins: 10 sign: 1, params.C: 0.750000 metric: euclid
0.965891, cells: 1 x 1, blocks: 1 x 1, stride: 1 x 1, margin: 6, bins: 10 sign: 1, params.C: 0.800000 metric: euclid
0.955814, cells: 1 x 1, blocks: 1 x 1, stride: 1 x 1, margin: 6, bins: 10 sign: 1, params.C: 0.200000 metric: max
0.955814, cells: 1 x 1, blocks: 1 x 1, stride: 1 x 1, margin: 6, bins: 10 sign: 1, params.C: 0.500000 metric: max
0.955814, cells: 1 x 1, blocks: 1 x 1, stride: 1 x 1, margin: 6, bins: 10 sign: 1, params.C: 0.700000 metric: max
0.955814, cells: 1 x 1, blocks: 1 x 1, stride: 1 x 1, margin: 6, bins: 10 sign: 1, params.C: 0.750000 metric: max
0.955814, cells: 1 x 1, blocks: 1 x 1, stride: 1 x 1, margin: 6, bins: 10 sign: 1, params.C: 0.800000 metric: max
0.972093, cells: 1 x 1, blocks: 1 x 1, stride: 1 x 1, margin: 6, bins: 10 sign: 1, params.C: 0.200000 metric: sum
0.972093, cells: 1 x 1, blocks: 1 x 1, stride: 1 x 1, margin: 6, bins: 10 sign: 1, params.C: 0.500000 metric: sum
0.972093, cells: 1 x 1, blocks: 1 x 1, stride: 1 x 1, margin: 6, bins: 10 sign: 1, params.C: 0.700000 metric: sum
0.972093, cells: 1 x 1, blocks: 1 x 1, stride: 1 x 1, margin: 6, bins: 10 sign: 1, params.C: 0.750000 metric: sum
0.972093, cells: 1 x 1, blocks: 1 x 1, stride: 1 x 1, margin: 6, bins: 10 sign: 1, params.C: 0.800000 metric: sum
0.973643, cells: 1 x 1, blocks: 1 x 1, stride: 1 x 1, margin: 6, bins: 9 sign: 1, params.C: 0.200000 metric: euclid
0.973643, cells: 1 x 1, blocks: 1 x 1, stride: 1 x 1, margin: 6, bins: 9 sign: 1, params.C: 0.500000 metric: euclid
0.973643, cells: 1 x 1, blocks: 1 x 1, stride: 1 x 1, margin: 6, bins: 9 sign: 1, params.C: 0.700000 metric: euclid
0.973643, cells: 1 x 1, blocks: 1 x 1, stride: 1 x 1, margin: 6, bins: 9 sign: 1, params.C: 0.750000 metric: euclid
0.973643, cells: 1 x 1, blocks: 1 x 1, stride: 1 x 1, margin: 6, bins: 9 sign: 1, params.C: 0.800000 metric: euclid
0.966667, cells: 1 x 1, blocks: 1 x 1, stride: 1 x 1, margin: 6, bins: 9 sign: 1, params.C: 0.200000 metric: max
0.966667, cells: 1 x 1, blocks: 1 x 1, stride: 1 x 1, margin: 6, bins: 9 sign: 1, params.C: 0.500000 metric: max
0.966667, cells: 1 x 1, blocks: 1 x 1, stride: 1 x 1, margin: 6, bins: 9 sign: 1, params.C: 0.700000 metric: max
0.966667, cells: 1 x 1, blocks: 1 x 1, stride: 1 x 1, margin: 6, bins: 9 sign: 1, params.C: 0.750000 metric: max
0.966667, cells: 1 x 1, blocks: 1 x 1, stride: 1 x 1, margin: 6, bins: 9 sign: 1, params.C: 0.800000 metric: max
0.972868, cells: 1 x 1, blocks: 1 x 1, stride: 1 x 1, margin: 6, bins: 9 sign: 1, params.C: 0.200000 metric: sum
0.972868, cells: 1 x 1, blocks: 1 x 1, stride: 1 x 1, margin: 6, bins: 9 sign: 1, params.C: 0.500000 metric: sum
0.972868, cells: 1 x 1, blocks: 1 x 1, stride: 1 x 1, margin: 6, bins: 9 sign: 1, params.C: 0.700000 metric: sum
0.972868, cells: 1 x 1, blocks: 1 x 1, stride: 1 x 1, margin: 6, bins: 9 sign: 1, params.C: 0.750000 metric: sum
0.972868, cells: 1 x 1, blocks: 1 x 1, stride: 1 x 1, margin: 6, bins: 9 sign: 1, params.C: 0.800000 metric: sum
0.953488, cells: 1 x 1, blocks: 1 x 1, stride: 1 x 1, margin: 6, bins: 8 sign: 1, params.C: 0.200000 metric: euclid
0.953488, cells: 1 x 1, blocks: 1 x 1, stride: 1 x 1, margin: 6, bins: 8 sign: 1, params.C: 0.500000 metric: euclid
0.953488, cells: 1 x 1, blocks: 1 x 1, stride: 1 x 1, margin: 6, bins: 8 sign: 1, params.C: 0.700000 metric: euclid
0.953488, cells: 1 x 1, blocks: 1 x 1, stride: 1 x 1, margin: 6, bins: 8 sign: 1, params.C: 0.750000 metric: euclid
0.953488, cells: 1 x 1, blocks: 1 x 1, stride: 1 x 1, margin: 6, bins: 8 sign: 1, params.C: 0.800000 metric: euclid
0.948062, cells: 1 x 1, blocks: 1 x 1, stride: 1 x 1, margin: 6, bins: 8 sign: 1, params.C: 0.200000 metric: max
0.948062, cells: 1 x 1, blocks: 1 x 1, stride: 1 x 1, margin: 6, bins: 8 sign: 1, params.C: 0.500000 metric: max
0.948062, cells: 1 x 1, blocks: 1 x 1, stride: 1 x 1, margin: 6, bins: 8 sign: 1, params.C: 0.700000 metric: max
0.948062, cells: 1 x 1, blocks: 1 x 1, stride: 1 x 1, margin: 6, bins: 8 sign: 1, params.C: 0.750000 metric: max
0.948062, cells: 1 x 1, blocks: 1 x 1, stride: 1 x 1, margin: 6, bins: 8 sign: 1, params.C: 0.800000 metric: max
0.962016, cells: 1 x 1, blocks: 1 x 1, stride: 1 x 1, margin: 6, bins: 8 sign: 1, params.C: 0.200000 metric: sum
0.962016, cells: 1 x 1, blocks: 1 x 1, stride: 1 x 1, margin: 6, bins: 8 sign: 1, params.C: 0.500000 metric: sum
0.962016, cells: 1 x 1, blocks: 1 x 1, stride: 1 x 1, margin: 6, bins: 8 sign: 1, params.C: 0.700000 metric: sum
0.962016, cells: 1 x 1, blocks: 1 x 1, stride: 1 x 1, margin: 6, bins: 8 sign: 1, params.C: 0.750000 metric: sum
0.962016, cells: 1 x 1, blocks: 1 x 1, stride: 1 x 1, margin: 6, bins: 8 sign: 1, params.C: 0.800000 metric: sum
0.964341, cells: 1 x 1, blocks: 1 x 2, stride: 1 x 1, margin: 6, bins: 18 sign: 1, params.C: 0.200000 metric: euclid
0.964341, cells: 1 x 1, blocks: 1 x 2, stride: 1 x 1, margin: 6, bins: 18 sign: 1, params.C: 0.500000 metric: euclid
0.964341, cells: 1 x 1, blocks: 1 x 2, stride: 1 x 1, margin: 6, bins: 18 sign: 1, params.C: 0.700000 metric: euclid
0.964341, cells: 1 x 1, blocks: 1 x 2, stride: 1 x 1, margin: 6, bins: 18 sign: 1, params.C: 0.750000 metric: euclid
0.964341, cells: 1 x 1, blocks: 1 x 2, stride: 1 x 1, margin: 6, bins: 18 sign: 1, params.C: 0.800000 metric: euclid
0.954264, cells: 1 x 1, blocks: 1 x 2, stride: 1 x 1, margin: 6, bins: 18 sign: 1, params.C: 0.200000 metric: max
0.954264, cells: 1 x 1, blocks: 1 x 2, stride: 1 x 1, margin: 6, bins: 18 sign: 1, params.C: 0.500000 metric: max
0.954264, cells: 1 x 1, blocks: 1 x 2, stride: 1 x 1, margin: 6, bins: 18 sign: 1, params.C: 0.700000 metric: max
0.954264, cells: 1 x 1, blocks: 1 x 2, stride: 1 x 1, margin: 6, bins: 18 sign: 1, params.C: 0.750000 metric: max
0.954264, cells: 1 x 1, blocks: 1 x 2, stride: 1 x 1, margin: 6, bins: 18 sign: 1, params.C: 0.800000 metric: max
0.966667, cells: 1 x 1, blocks: 1 x 2, stride: 1 x 1, margin: 6, bins: 18 sign: 1, params.C: 0.200000 metric: sum
0.966667, cells: 1 x 1, blocks: 1 x 2, stride: 1 x 1, margin: 6, bins: 18 sign: 1, params.C: 0.500000 metric: sum
0.966667, cells: 1 x 1, blocks: 1 x 2, stride: 1 x 1, margin: 6, bins: 18 sign: 1, params.C: 0.700000 metric: sum
0.966667, cells: 1 x 1, blocks: 1 x 2, stride: 1 x 1, margin: 6, bins: 18 sign: 1, params.C: 0.750000 metric: sum
0.966667, cells: 1 x 1, blocks: 1 x 2, stride: 1 x 1, margin: 6, bins: 18 sign: 1, params.C: 0.800000 metric: sum
0.965891, cells: 1 x 1, blocks: 1 x 2, stride: 1 x 1, margin: 6, bins: 10 sign: 1, params.C: 0.200000 metric: euclid
0.965891, cells: 1 x 1, blocks: 1 x 2, stride: 1 x 1, margin: 6, bins: 10 sign: 1, params.C: 0.500000 metric: euclid
0.965891, cells: 1 x 1, blocks: 1 x 2, stride: 1 x 1, margin: 6, bins: 10 sign: 1, params.C: 0.700000 metric: euclid
0.965891, cells: 1 x 1, blocks: 1 x 2, stride: 1 x 1, margin: 6, bins: 10 sign: 1, params.C: 0.750000 metric: euclid
0.965891, cells: 1 x 1, blocks: 1 x 2, stride: 1 x 1, margin: 6, bins: 10 sign: 1, params.C: 0.800000 metric: euclid
0.952713, cells: 1 x 1, blocks: 1 x 2, stride: 1 x 1, margin: 6, bins: 10 sign: 1, params.C: 0.200000 metric: max
0.952713, cells: 1 x 1, blocks: 1 x 2, stride: 1 x 1, margin: 6, bins: 10 sign: 1, params.C: 0.500000 metric: max
0.952713, cells: 1 x 1, blocks: 1 x 2, stride: 1 x 1, margin: 6, bins: 10 sign: 1, params.C: 0.700000 metric: max
0.952713, cells: 1 x 1, blocks: 1 x 2, stride: 1 x 1, margin: 6, bins: 10 sign: 1, params.C: 0.750000 metric: max
0.952713, cells: 1 x 1, blocks: 1 x 2, stride: 1 x 1, margin: 6, bins: 10 sign: 1, params.C: 0.800000 metric: max
0.968217, cells: 1 x 1, blocks: 1 x 2, stride: 1 x 1, margin: 6, bins: 10 sign: 1, params.C: 0.200000 metric: sum
0.968217, cells: 1 x 1, blocks: 1 x 2, stride: 1 x 1, margin: 6, bins: 10 sign: 1, params.C: 0.500000 metric: sum
0.968217, cells: 1 x 1, blocks: 1 x 2, stride: 1 x 1, margin: 6, bins: 10 sign: 1, params.C: 0.700000 metric: sum
0.968217, cells: 1 x 1, blocks: 1 x 2, stride: 1 x 1, margin: 6, bins: 10 sign: 1, params.C: 0.750000 metric: sum
0.968217, cells: 1 x 1, blocks: 1 x 2, stride: 1 x 1, margin: 6, bins: 10 sign: 1, params.C: 0.800000 metric: sum
