0.965891, cells: 1 x 1, blocks: 1 x 1, stride: 1 x 1, margin: 6, bins: 18 sign: 1, params.C: 0.200000 metric: euclid
0.963566, cells: 1 x 1, blocks: 1 x 1, stride: 1 x 1, margin: 6, bins: 18 sign: 1, params.C: 0.500000 metric: euclid
0.962791, cells: 1 x 1, blocks: 1 x 1, stride: 1 x 1, margin: 6, bins: 18 sign: 1, params.C: 0.700000 metric: euclid
0.962791, cells: 1 x 1, blocks: 1 x 1, stride: 1 x 1, margin: 6, bins: 18 sign: 1, params.C: 0.750000 metric: euclid
0.962791, cells: 1 x 1, blocks: 1 x 1, stride: 1 x 1, margin: 6, bins: 18 sign: 1, params.C: 0.800000 metric: euclid
0.951938, cells: 1 x 1, blocks: 1 x 1, stride: 1 x 1, margin: 6, bins: 18 sign: 1, params.C: 0.200000 metric: max
0.953488, cells: 1 x 1, blocks: 1 x 1, stride: 1 x 1, margin: 6, bins: 18 sign: 1, params.C: 0.500000 metric: max
0.953488, cells: 1 x 1, blocks: 1 x 1, stride: 1 x 1, margin: 6, bins: 18 sign: 1, params.C: 0.700000 metric: max
0.953488, cells: 1 x 1, blocks: 1 x 1, stride: 1 x 1, margin: 6, bins: 18 sign: 1, params.C: 0.750000 metric: max
0.953488, cells: 1 x 1, blocks: 1 x 1, stride: 1 x 1, margin: 6, bins: 18 sign: 1, params.C: 0.800000 metric: max
0.962016, cells: 1 x 1, blocks: 1 x 1, stride: 1 x 1, margin: 6, bins: 18 sign: 1, params.C: 0.200000 metric: sum
0.967442, cells: 1 x 1, blocks: 1 x 1, stride: 1 x 1, margin: 6, bins: 18 sign: 1, params.C: 0.500000 metric: sum
0.968992, cells: 1 x 1, blocks: 1 x 1, stride: 1 x 1, margin: 6, bins: 18 sign: 1, params.C: 0.700000 metric: sum
0.968217, cells: 1 x 1, blocks: 1 x 1, stride: 1 x 1, margin: 6, bins: 18 sign: 1, params.C: 0.750000 metric: sum
0.968217, cells: 1 x 1, blocks: 1 x 1, stride: 1 x 1, margin: 6, bins: 18 sign: 1, params.C: 0.800000 metric: sum
0.970543, cells: 1 x 1, blocks: 1 x 1, stride: 1 x 1, margin: 6, bins: 10 sign: 1, params.C: 0.200000 metric: euclid
0.968217, cells: 1 x 1, blocks: 1 x 1, stride: 1 x 1, margin: 6, bins: 10 sign: 1, params.C: 0.500000 metric: euclid
0.965891, cells: 1 x 1, blocks: 1 x 1, stride: 1 x 1, margin: 6, bins: 10 sign: 1, params.C: 0.700000 metric: euclid
0.965891, cells: 1 x 1, blocks: 1 x 1, stride: 1 x 1, margin: 6, bins: 10 sign: 1, params.C: 0.750000 metric: euclid
0.965116, cells: 1 x 1, blocks: 1 x 1, stride: 1 x 1, margin: 6, bins: 10 sign: 1, params.C: 0.800000 metric: euclid
0.955039, cells: 1 x 1, blocks: 1 x 1, stride: 1 x 1, margin: 6, bins: 10 sign: 1, params.C: 0.200000 metric: max
0.955039, cells: 1 x 1, blocks: 1 x 1, stride: 1 x 1, margin: 6, bins: 10 sign: 1, params.C: 0.500000 metric: max
0.955814, cells: 1 x 1, blocks: 1 x 1, stride: 1 x 1, margin: 6, bins: 10 sign: 1, params.C: 0.700000 metric: max
0.955814, cells: 1 x 1, blocks: 1 x 1, stride: 1 x 1, margin: 6, bins: 10 sign: 1, params.C: 0.750000 metric: max
0.955814, cells: 1 x 1, blocks: 1 x 1, stride: 1 x 1, margin: 6, bins: 10 sign: 1, params.C: 0.800000 metric: max
0.968217, cells: 1 x 1, blocks: 1 x 1, stride: 1 x 1, margin: 6, bins: 10 sign: 1, params.C: 0.200000 metric: sum
0.970543, cells: 1 x 1, blocks: 1 x 1, stride: 1 x 1, margin: 6, bins: 10 sign: 1, params.C: 0.500000 metric: sum
0.972093, cells: 1 x 1, blocks: 1 x 1, stride: 1 x 1, margin: 6, bins: 10 sign: 1, params.C: 0.700000 metric: sum
0.971318, cells: 1 x 1, blocks: 1 x 1, stride: 1 x 1, margin: 6, bins: 10 sign: 1, params.C: 0.750000 metric: sum
0.971318, cells: 1 x 1, blocks: 1 x 1, stride: 1 x 1, margin: 6, bins: 10 sign: 1, params.C: 0.800000 metric: sum
0.973643, cells: 1 x 1, blocks: 1 x 1, stride: 1 x 1, margin: 6, bins: 9 sign: 1, params.C: 0.200000 metric: euclid
0.972868, cells: 1 x 1, blocks: 1 x 1, stride: 1 x 1, margin: 6, bins: 9 sign: 1, params.C: 0.500000 metric: euclid
0.973643, cells: 1 x 1, blocks: 1 x 1, stride: 1 x 1, margin: 6, bins: 9 sign: 1, params.C: 0.700000 metric: euclid
0.973643, cells: 1 x 1, blocks: 1 x 1, stride: 1 x 1, margin: 6, bins: 9 sign: 1, params.C: 0.750000 metric: euclid
0.973643, cells: 1 x 1, blocks: 1 x 1, stride: 1 x 1, margin: 6, bins: 9 sign: 1, params.C: 0.800000 metric: euclid
0.970543, cells: 1 x 1, blocks: 1 x 1, stride: 1 x 1, margin: 6, bins: 9 sign: 1, params.C: 0.200000 metric: max
0.965891, cells: 1 x 1, blocks: 1 x 1, stride: 1 x 1, margin: 6, bins: 9 sign: 1, params.C: 0.500000 metric: max
0.966667, cells: 1 x 1, blocks: 1 x 1, stride: 1 x 1, margin: 6, bins: 9 sign: 1, params.C: 0.700000 metric: max
0.966667, cells: 1 x 1, blocks: 1 x 1, stride: 1 x 1, margin: 6, bins: 9 sign: 1, params.C: 0.750000 metric: max
0.966667, cells: 1 x 1, blocks: 1 x 1, stride: 1 x 1, margin: 6, bins: 9 sign: 1, params.C: 0.800000 metric: max
0.968992, cells: 1 x 1, blocks: 1 x 1, stride: 1 x 1, margin: 6, bins: 9 sign: 1, params.C: 0.200000 metric: sum
0.972868, cells: 1 x 1, blocks: 1 x 1, stride: 1 x 1, margin: 6, bins: 9 sign: 1, params.C: 0.500000 metric: sum
0.972868, cells: 1 x 1, blocks: 1 x 1, stride: 1 x 1, margin: 6, bins: 9 sign: 1, params.C: 0.700000 metric: sum
0.972868, cells: 1 x 1, blocks: 1 x 1, stride: 1 x 1, margin: 6, bins: 9 sign: 1, params.C: 0.750000 metric: sum
0.972868, cells: 1 x 1, blocks: 1 x 1, stride: 1 x 1, margin: 6, bins: 9 sign: 1, params.C: 0.800000 metric: sum
0.957364, cells: 1 x 1, blocks: 1 x 1, stride: 1 x 1, margin: 6, bins: 8 sign: 1, params.C: 0.200000 metric: euclid
0.956589, cells: 1 x 1, blocks: 1 x 1, stride: 1 x 1, margin: 6, bins: 8 sign: 1, params.C: 0.500000 metric: euclid
0.953488, cells: 1 x 1, blocks: 1 x 1, stride: 1 x 1, margin: 6, bins: 8 sign: 1, params.C: 0.700000 metric: euclid
0.953488, cells: 1 x 1, blocks: 1 x 1, stride: 1 x 1, margin: 6, bins: 8 sign: 1, params.C: 0.750000 metric: euclid
0.953488, cells: 1 x 1, blocks: 1 x 1, stride: 1 x 1, margin: 6, bins: 8 sign: 1, params.C: 0.800000 metric: euclid
0.949612, cells: 1 x 1, blocks: 1 x 1, stride: 1 x 1, margin: 6, bins: 8 sign: 1, params.C: 0.200000 metric: max
0.948062, cells: 1 x 1, blocks: 1 x 1, stride: 1 x 1, margin: 6, bins: 8 sign: 1, params.C: 0.500000 metric: max
0.948062, cells: 1 x 1, blocks: 1 x 1, stride: 1 x 1, margin: 6, bins: 8 sign: 1, params.C: 0.700000 metric: max
0.948062, cells: 1 x 1, blocks: 1 x 1, stride: 1 x 1, margin: 6, bins: 8 sign: 1, params.C: 0.750000 metric: max
0.948062, cells: 1 x 1, blocks: 1 x 1, stride: 1 x 1, margin: 6, bins: 8 sign: 1, params.C: 0.800000 metric: max
0.961240, cells: 1 x 1, blocks: 1 x 1, stride: 1 x 1, margin: 6, bins: 8 sign: 1, params.C: 0.200000 metric: sum
0.961240, cells: 1 x 1, blocks: 1 x 1, stride: 1 x 1, margin: 6, bins: 8 sign: 1, params.C: 0.500000 metric: sum
0.962016, cells: 1 x 1, blocks: 1 x 1, stride: 1 x 1, margin: 6, bins: 8 sign: 1, params.C: 0.700000 metric: sum
0.961240, cells: 1 x 1, blocks: 1 x 1, stride: 1 x 1, margin: 6, bins: 8 sign: 1, params.C: 0.750000 metric: sum
0.961240, cells: 1 x 1, blocks: 1 x 1, stride: 1 x 1, margin: 6, bins: 8 sign: 1, params.C: 0.800000 metric: sum
0.964341, cells: 1 x 1, blocks: 1 x 2, stride: 1 x 1, margin: 6, bins: 18 sign: 1, params.C: 0.200000 metric: euclid
0.964341, cells: 1 x 1, blocks: 1 x 2, stride: 1 x 1, margin: 6, bins: 18 sign: 1, params.C: 0.500000 metric: euclid
0.964341, cells: 1 x 1, blocks: 1 x 2, stride: 1 x 1, margin: 6, bins: 18 sign: 1, params.C: 0.700000 metric: euclid
0.963566, cells: 1 x 1, blocks: 1 x 2, stride: 1 x 1, margin: 6, bins: 18 sign: 1, params.C: 0.750000 metric: euclid
0.963566, cells: 1 x 1, blocks: 1 x 2, stride: 1 x 1, margin: 6, bins: 18 sign: 1, params.C: 0.800000 metric: euclid
0.954264, cells: 1 x 1, blocks: 1 x 2, stride: 1 x 1, margin: 6, bins: 18 sign: 1, params.C: 0.200000 metric: max
0.954264, cells: 1 x 1, blocks: 1 x 2, stride: 1 x 1, margin: 6, bins: 18 sign: 1, params.C: 0.500000 metric: max
0.954264, cells: 1 x 1, blocks: 1 x 2, stride: 1 x 1, margin: 6, bins: 18 sign: 1, params.C: 0.700000 metric: max
0.954264, cells: 1 x 1, blocks: 1 x 2, stride: 1 x 1, margin: 6, bins: 18 sign: 1, params.C: 0.750000 metric: max
0.954264, cells: 1 x 1, blocks: 1 x 2, stride: 1 x 1, margin: 6, bins: 18 sign: 1, params.C: 0.800000 metric: max
0.960465, cells: 1 x 1, blocks: 1 x 2, stride: 1 x 1, margin: 6, bins: 18 sign: 1, params.C: 0.200000 metric: sum
0.963566, cells: 1 x 1, blocks: 1 x 2, stride: 1 x 1, margin: 6, bins: 18 sign: 1, params.C: 0.500000 metric: sum
0.966667, cells: 1 x 1, blocks: 1 x 2, stride: 1 x 1, margin: 6, bins: 18 sign: 1, params.C: 0.700000 metric: sum
0.966667, cells: 1 x 1, blocks: 1 x 2, stride: 1 x 1, margin: 6, bins: 18 sign: 1, params.C: 0.750000 metric: sum
0.966667, cells: 1 x 1, blocks: 1 x 2, stride: 1 x 1, margin: 6, bins: 18 sign: 1, params.C: 0.800000 metric: sum
0.967442, cells: 1 x 1, blocks: 1 x 2, stride: 1 x 1, margin: 6, bins: 10 sign: 1, params.C: 0.200000 metric: euclid
0.965891, cells: 1 x 1, blocks: 1 x 2, stride: 1 x 1, margin: 6, bins: 10 sign: 1, params.C: 0.500000 metric: euclid
0.965891, cells: 1 x 1, blocks: 1 x 2, stride: 1 x 1, margin: 6, bins: 10 sign: 1, params.C: 0.700000 metric: euclid
0.965116, cells: 1 x 1, blocks: 1 x 2, stride: 1 x 1, margin: 6, bins: 10 sign: 1, params.C: 0.750000 metric: euclid
0.965116, cells: 1 x 1, blocks: 1 x 2, stride: 1 x 1, margin: 6, bins: 10 sign: 1, params.C: 0.800000 metric: euclid
0.953488, cells: 1 x 1, blocks: 1 x 2, stride: 1 x 1, margin: 6, bins: 10 sign: 1, params.C: 0.200000 metric: max
0.952713, cells: 1 x 1, blocks: 1 x 2, stride: 1 x 1, margin: 6, bins: 10 sign: 1, params.C: 0.500000 metric: max
0.952713, cells: 1 x 1, blocks: 1 x 2, stride: 1 x 1, margin: 6, bins: 10 sign: 1, params.C: 0.700000 metric: max
0.952713, cells: 1 x 1, blocks: 1 x 2, stride: 1 x 1, margin: 6, bins: 10 sign: 1, params.C: 0.750000 metric: max
0.952713, cells: 1 x 1, blocks: 1 x 2, stride: 1 x 1, margin: 6, bins: 10 sign: 1, params.C: 0.800000 metric: max
0.966667, cells: 1 x 1, blocks: 1 x 2, stride: 1 x 1, margin: 6, bins: 10 sign: 1, params.C: 0.200000 metric: sum
0.968992, cells: 1 x 1, blocks: 1 x 2, stride: 1 x 1, margin: 6, bins: 10 sign: 1, params.C: 0.500000 metric: sum
0.968217, cells: 1 x 1, blocks: 1 x 2, stride: 1 x 1, margin: 6, bins: 10 sign: 1, params.C: 0.700000 metric: sum
0.968992, cells: 1 x 1, blocks: 1 x 2, stride: 1 x 1, margin: 6, bins: 10 sign: 1, params.C: 0.750000 metric: sum
0.968992, cells: 1 x 1, blocks: 1 x 2, stride: 1 x 1, margin: 6, bins: 10 sign: 1, params.C: 0.800000 metric: sum
0.973643, cells: 1 x 1, blocks: 1 x 2, stride: 1 x 1, margin: 6, bins: 9 sign: 1, params.C: 0.200000 metric: euclid
0.973643, cells: 1 x 1, blocks: 1 x 2, stride: 1 x 1, margin: 6, bins: 9 sign: 1, params.C: 0.500000 metric: euclid
0.974419, cells: 1 x 1, blocks: 1 x 2, stride: 1 x 1, margin: 6, bins: 9 sign: 1, params.C: 0.700000 metric: euclid
0.974419, cells: 1 x 1, blocks: 1 x 2, stride: 1 x 1, margin: 6, bins: 9 sign: 1, params.C: 0.750000 metric: euclid
0.974419, cells: 1 x 1, blocks: 1 x 2, stride: 1 x 1, margin: 6, bins: 9 sign: 1, params.C: 0.800000 metric: euclid
0.969767, cells: 1 x 1, blocks: 1 x 2, stride: 1 x 1, margin: 6, bins: 9 sign: 1, params.C: 0.200000 metric: max
0.968217, cells: 1 x 1, blocks: 1 x 2, stride: 1 x 1, margin: 6, bins: 9 sign: 1, params.C: 0.500000 metric: max
0.967442, cells: 1 x 1, blocks: 1 x 2, stride: 1 x 1, margin: 6, bins: 9 sign: 1, params.C: 0.700000 metric: max
0.967442, cells: 1 x 1, blocks: 1 x 2, stride: 1 x 1, margin: 6, bins: 9 sign: 1, params.C: 0.750000 metric: max
0.967442, cells: 1 x 1, blocks: 1 x 2, stride: 1 x 1, margin: 6, bins: 9 sign: 1, params.C: 0.800000 metric: max
0.968217, cells: 1 x 1, blocks: 1 x 2, stride: 1 x 1, margin: 6, bins: 9 sign: 1, params.C: 0.200000 metric: sum
0.971318, cells: 1 x 1, blocks: 1 x 2, stride: 1 x 1, margin: 6, bins: 9 sign: 1, params.C: 0.500000 metric: sum
0.972093, cells: 1 x 1, blocks: 1 x 2, stride: 1 x 1, margin: 6, bins: 9 sign: 1, params.C: 0.700000 metric: sum
0.972868, cells: 1 x 1, blocks: 1 x 2, stride: 1 x 1, margin: 6, bins: 9 sign: 1, params.C: 0.750000 metric: sum
0.972868, cells: 1 x 1, blocks: 1 x 2, stride: 1 x 1, margin: 6, bins: 9 sign: 1, params.C: 0.800000 metric: sum
0.959690, cells: 1 x 1, blocks: 1 x 2, stride: 1 x 1, margin: 6, bins: 8 sign: 1, params.C: 0.200000 metric: euclid
0.957364, cells: 1 x 1, blocks: 1 x 2, stride: 1 x 1, margin: 6, bins: 8 sign: 1, params.C: 0.500000 metric: euclid
0.957364, cells: 1 x 1, blocks: 1 x 2, stride: 1 x 1, margin: 6, bins: 8 sign: 1, params.C: 0.700000 metric: euclid
0.956589, cells: 1 x 1, blocks: 1 x 2, stride: 1 x 1, margin: 6, bins: 8 sign: 1, params.C: 0.750000 metric: euclid
0.956589, cells: 1 x 1, blocks: 1 x 2, stride: 1 x 1, margin: 6, bins: 8 sign: 1, params.C: 0.800000 metric: euclid
0.949612, cells: 1 x 1, blocks: 1 x 2, stride: 1 x 1, margin: 6, bins: 8 sign: 1, params.C: 0.200000 metric: max
0.948062, cells: 1 x 1, blocks: 1 x 2, stride: 1 x 1, margin: 6, bins: 8 sign: 1, params.C: 0.500000 metric: max
0.948062, cells: 1 x 1, blocks: 1 x 2, stride: 1 x 1, margin: 6, bins: 8 sign: 1, params.C: 0.700000 metric: max
0.948062, cells: 1 x 1, blocks: 1 x 2, stride: 1 x 1, margin: 6, bins: 8 sign: 1, params.C: 0.750000 metric: max
0.948062, cells: 1 x 1, blocks: 1 x 2, stride: 1 x 1, margin: 6, bins: 8 sign: 1, params.C: 0.800000 metric: max
0.960465, cells: 1 x 1, blocks: 1 x 2, stride: 1 x 1, margin: 6, bins: 8 sign: 1, params.C: 0.200000 metric: sum
0.961240, cells: 1 x 1, blocks: 1 x 2, stride: 1 x 1, margin: 6, bins: 8 sign: 1, params.C: 0.500000 metric: sum
0.958915, cells: 1 x 1, blocks: 1 x 2, stride: 1 x 1, margin: 6, bins: 8 sign: 1, params.C: 0.700000 metric: sum
0.958915, cells: 1 x 1, blocks: 1 x 2, stride: 1 x 1, margin: 6, bins: 8 sign: 1, params.C: 0.750000 metric: sum
0.958915, cells: 1 x 1, blocks: 1 x 2, stride: 1 x 1, margin: 6, bins: 8 sign: 1, params.C: 0.800000 metric: sum
0.962791, cells: 1 x 1, blocks: 1 x 3, stride: 1 x 1, margin: 6, bins: 18 sign: 1, params.C: 0.200000 metric: euclid
0.963566, cells: 1 x 1, blocks: 1 x 3, stride: 1 x 1, margin: 6, bins: 18 sign: 1, params.C: 0.500000 metric: euclid
0.963566, cells: 1 x 1, blocks: 1 x 3, stride: 1 x 1, margin: 6, bins: 18 sign: 1, params.C: 0.700000 metric: euclid
0.963566, cells: 1 x 1, blocks: 1 x 3, stride: 1 x 1, margin: 6, bins: 18 sign: 1, params.C: 0.750000 metric: euclid
0.963566, cells: 1 x 1, blocks: 1 x 3, stride: 1 x 1, margin: 6, bins: 18 sign: 1, params.C: 0.800000 metric: euclid
0.955814, cells: 1 x 1, blocks: 1 x 3, stride: 1 x 1, margin: 6, bins: 18 sign: 1, params.C: 0.200000 metric: max
0.955039, cells: 1 x 1, blocks: 1 x 3, stride: 1 x 1, margin: 6, bins: 18 sign: 1, params.C: 0.500000 metric: max
0.954264, cells: 1 x 1, blocks: 1 x 3, stride: 1 x 1, margin: 6, bins: 18 sign: 1, params.C: 0.700000 metric: max
0.954264, cells: 1 x 1, blocks: 1 x 3, stride: 1 x 1, margin: 6, bins: 18 sign: 1, params.C: 0.750000 metric: max
0.954264, cells: 1 x 1, blocks: 1 x 3, stride: 1 x 1, margin: 6, bins: 18 sign: 1, params.C: 0.800000 metric: max
0.960465, cells: 1 x 1, blocks: 1 x 3, stride: 1 x 1, margin: 6, bins: 18 sign: 1, params.C: 0.200000 metric: sum
0.966667, cells: 1 x 1, blocks: 1 x 3, stride: 1 x 1, margin: 6, bins: 18 sign: 1, params.C: 0.500000 metric: sum
0.965891, cells: 1 x 1, blocks: 1 x 3, stride: 1 x 1, margin: 6, bins: 18 sign: 1, params.C: 0.700000 metric: sum
0.965116, cells: 1 x 1, blocks: 1 x 3, stride: 1 x 1, margin: 6, bins: 18 sign: 1, params.C: 0.750000 metric: sum
0.965891, cells: 1 x 1, blocks: 1 x 3, stride: 1 x 1, margin: 6, bins: 18 sign: 1, params.C: 0.800000 metric: sum
0.963566, cells: 1 x 1, blocks: 1 x 3, stride: 1 x 1, margin: 6, bins: 10 sign: 1, params.C: 0.200000 metric: euclid
0.962016, cells: 1 x 1, blocks: 1 x 3, stride: 1 x 1, margin: 6, bins: 10 sign: 1, params.C: 0.500000 metric: euclid
0.960465, cells: 1 x 1, blocks: 1 x 3, stride: 1 x 1, margin: 6, bins: 10 sign: 1, params.C: 0.700000 metric: euclid
0.960465, cells: 1 x 1, blocks: 1 x 3, stride: 1 x 1, margin: 6, bins: 10 sign: 1, params.C: 0.750000 metric: euclid
0.960465, cells: 1 x 1, blocks: 1 x 3, stride: 1 x 1, margin: 6, bins: 10 sign: 1, params.C: 0.800000 metric: euclid
0.956589, cells: 1 x 1, blocks: 1 x 3, stride: 1 x 1, margin: 6, bins: 10 sign: 1, params.C: 0.200000 metric: max
0.956589, cells: 1 x 1, blocks: 1 x 3, stride: 1 x 1, margin: 6, bins: 10 sign: 1, params.C: 0.500000 metric: max
0.956589, cells: 1 x 1, blocks: 1 x 3, stride: 1 x 1, margin: 6, bins: 10 sign: 1, params.C: 0.700000 metric: max
0.956589, cells: 1 x 1, blocks: 1 x 3, stride: 1 x 1, margin: 6, bins: 10 sign: 1, params.C: 0.750000 metric: max
0.956589, cells: 1 x 1, blocks: 1 x 3, stride: 1 x 1, margin: 6, bins: 10 sign: 1, params.C: 0.800000 metric: max
0.965116, cells: 1 x 1, blocks: 1 x 3, stride: 1 x 1, margin: 6, bins: 10 sign: 1, params.C: 0.200000 metric: sum
0.968992, cells: 1 x 1, blocks: 1 x 3, stride: 1 x 1, margin: 6, bins: 10 sign: 1, params.C: 0.500000 metric: sum
0.968217, cells: 1 x 1, blocks: 1 x 3, stride: 1 x 1, margin: 6, bins: 10 sign: 1, params.C: 0.700000 metric: sum
0.968217, cells: 1 x 1, blocks: 1 x 3, stride: 1 x 1, margin: 6, bins: 10 sign: 1, params.C: 0.750000 metric: sum
0.968217, cells: 1 x 1, blocks: 1 x 3, stride: 1 x 1, margin: 6, bins: 10 sign: 1, params.C: 0.800000 metric: sum
0.971318, cells: 1 x 1, blocks: 1 x 3, stride: 1 x 1, margin: 6, bins: 9 sign: 1, params.C: 0.200000 metric: euclid
0.972093, cells: 1 x 1, blocks: 1 x 3, stride: 1 x 1, margin: 6, bins: 9 sign: 1, params.C: 0.500000 metric: euclid
0.972093, cells: 1 x 1, blocks: 1 x 3, stride: 1 x 1, margin: 6, bins: 9 sign: 1, params.C: 0.700000 metric: euclid
0.972093, cells: 1 x 1, blocks: 1 x 3, stride: 1 x 1, margin: 6, bins: 9 sign: 1, params.C: 0.750000 metric: euclid
0.972093, cells: 1 x 1, blocks: 1 x 3, stride: 1 x 1, margin: 6, bins: 9 sign: 1, params.C: 0.800000 metric: euclid
0.965891, cells: 1 x 1, blocks: 1 x 3, stride: 1 x 1, margin: 6, bins: 9 sign: 1, params.C: 0.200000 metric: max
0.965116, cells: 1 x 1, blocks: 1 x 3, stride: 1 x 1, margin: 6, bins: 9 sign: 1, params.C: 0.500000 metric: max
0.965116, cells: 1 x 1, blocks: 1 x 3, stride: 1 x 1, margin: 6, bins: 9 sign: 1, params.C: 0.700000 metric: max
0.965116, cells: 1 x 1, blocks: 1 x 3, stride: 1 x 1, margin: 6, bins: 9 sign: 1, params.C: 0.750000 metric: max
0.965116, cells: 1 x 1, blocks: 1 x 3, stride: 1 x 1, margin: 6, bins: 9 sign: 1, params.C: 0.800000 metric: max
0.968217, cells: 1 x 1, blocks: 1 x 3, stride: 1 x 1, margin: 6, bins: 9 sign: 1, params.C: 0.200000 metric: sum
0.971318, cells: 1 x 1, blocks: 1 x 3, stride: 1 x 1, margin: 6, bins: 9 sign: 1, params.C: 0.500000 metric: sum
0.972868, cells: 1 x 1, blocks: 1 x 3, stride: 1 x 1, margin: 6, bins: 9 sign: 1, params.C: 0.700000 metric: sum
0.972868, cells: 1 x 1, blocks: 1 x 3, stride: 1 x 1, margin: 6, bins: 9 sign: 1, params.C: 0.750000 metric: sum
0.972868, cells: 1 x 1, blocks: 1 x 3, stride: 1 x 1, margin: 6, bins: 9 sign: 1, params.C: 0.800000 metric: sum
0.960465, cells: 1 x 1, blocks: 1 x 3, stride: 1 x 1, margin: 6, bins: 8 sign: 1, params.C: 0.200000 metric: euclid
0.958140, cells: 1 x 1, blocks: 1 x 3, stride: 1 x 1, margin: 6, bins: 8 sign: 1, params.C: 0.500000 metric: euclid
0.958140, cells: 1 x 1, blocks: 1 x 3, stride: 1 x 1, margin: 6, bins: 8 sign: 1, params.C: 0.700000 metric: euclid
0.957364, cells: 1 x 1, blocks: 1 x 3, stride: 1 x 1, margin: 6, bins: 8 sign: 1, params.C: 0.750000 metric: euclid
0.957364, cells: 1 x 1, blocks: 1 x 3, stride: 1 x 1, margin: 6, bins: 8 sign: 1, params.C: 0.800000 metric: euclid
0.952713, cells: 1 x 1, blocks: 1 x 3, stride: 1 x 1, margin: 6, bins: 8 sign: 1, params.C: 0.200000 metric: max
0.950388, cells: 1 x 1, blocks: 1 x 3, stride: 1 x 1, margin: 6, bins: 8 sign: 1, params.C: 0.500000 metric: max
0.949612, cells: 1 x 1, blocks: 1 x 3, stride: 1 x 1, margin: 6, bins: 8 sign: 1, params.C: 0.700000 metric: max
0.949612, cells: 1 x 1, blocks: 1 x 3, stride: 1 x 1, margin: 6, bins: 8 sign: 1, params.C: 0.750000 metric: max
0.949612, cells: 1 x 1, blocks: 1 x 3, stride: 1 x 1, margin: 6, bins: 8 sign: 1, params.C: 0.800000 metric: max
0.961240, cells: 1 x 1, blocks: 1 x 3, stride: 1 x 1, margin: 6, bins: 8 sign: 1, params.C: 0.200000 metric: sum
0.964341, cells: 1 x 1, blocks: 1 x 3, stride: 1 x 1, margin: 6, bins: 8 sign: 1, params.C: 0.500000 metric: sum
0.962016, cells: 1 x 1, blocks: 1 x 3, stride: 1 x 1, margin: 6, bins: 8 sign: 1, params.C: 0.700000 metric: sum
0.961240, cells: 1 x 1, blocks: 1 x 3, stride: 1 x 1, margin: 6, bins: 8 sign: 1, params.C: 0.750000 metric: sum
0.961240, cells: 1 x 1, blocks: 1 x 3, stride: 1 x 1, margin: 6, bins: 8 sign: 1, params.C: 0.800000 metric: sum
0.966667, cells: 1 x 1, blocks: 1 x 4, stride: 1 x 1, margin: 6, bins: 18 sign: 1, params.C: 0.200000 metric: euclid
0.965891, cells: 1 x 1, blocks: 1 x 4, stride: 1 x 1, margin: 6, bins: 18 sign: 1, params.C: 0.500000 metric: euclid
0.965891, cells: 1 x 1, blocks: 1 x 4, stride: 1 x 1, margin: 6, bins: 18 sign: 1, params.C: 0.700000 metric: euclid
0.965891, cells: 1 x 1, blocks: 1 x 4, stride: 1 x 1, margin: 6, bins: 18 sign: 1, params.C: 0.750000 metric: euclid
0.965891, cells: 1 x 1, blocks: 1 x 4, stride: 1 x 1, margin: 6, bins: 18 sign: 1, params.C: 0.800000 metric: euclid
0.955039, cells: 1 x 1, blocks: 1 x 4, stride: 1 x 1, margin: 6, bins: 18 sign: 1, params.C: 0.200000 metric: max
0.952713, cells: 1 x 1, blocks: 1 x 4, stride: 1 x 1, margin: 6, bins: 18 sign: 1, params.C: 0.500000 metric: max
0.952713, cells: 1 x 1, blocks: 1 x 4, stride: 1 x 1, margin: 6, bins: 18 sign: 1, params.C: 0.700000 metric: max
0.952713, cells: 1 x 1, blocks: 1 x 4, stride: 1 x 1, margin: 6, bins: 18 sign: 1, params.C: 0.750000 metric: max
0.952713, cells: 1 x 1, blocks: 1 x 4, stride: 1 x 1, margin: 6, bins: 18 sign: 1, params.C: 0.800000 metric: max
0.962791, cells: 1 x 1, blocks: 1 x 4, stride: 1 x 1, margin: 6, bins: 18 sign: 1, params.C: 0.200000 metric: sum
0.963566, cells: 1 x 1, blocks: 1 x 4, stride: 1 x 1, margin: 6, bins: 18 sign: 1, params.C: 0.500000 metric: sum
0.965116, cells: 1 x 1, blocks: 1 x 4, stride: 1 x 1, margin: 6, bins: 18 sign: 1, params.C: 0.700000 metric: sum
0.965891, cells: 1 x 1, blocks: 1 x 4, stride: 1 x 1, margin: 6, bins: 18 sign: 1, params.C: 0.750000 metric: sum
0.966667, cells: 1 x 1, blocks: 1 x 4, stride: 1 x 1, margin: 6, bins: 18 sign: 1, params.C: 0.800000 metric: sum
0.964341, cells: 1 x 1, blocks: 1 x 4, stride: 1 x 1, margin: 6, bins: 10 sign: 1, params.C: 0.200000 metric: euclid
0.962791, cells: 1 x 1, blocks: 1 x 4, stride: 1 x 1, margin: 6, bins: 10 sign: 1, params.C: 0.500000 metric: euclid
0.962016, cells: 1 x 1, blocks: 1 x 4, stride: 1 x 1, margin: 6, bins: 10 sign: 1, params.C: 0.700000 metric: euclid
0.962016, cells: 1 x 1, blocks: 1 x 4, stride: 1 x 1, margin: 6, bins: 10 sign: 1, params.C: 0.750000 metric: euclid
0.962016, cells: 1 x 1, blocks: 1 x 4, stride: 1 x 1, margin: 6, bins: 10 sign: 1, params.C: 0.800000 metric: euclid
0.959690, cells: 1 x 1, blocks: 1 x 4, stride: 1 x 1, margin: 6, bins: 10 sign: 1, params.C: 0.200000 metric: max
0.958140, cells: 1 x 1, blocks: 1 x 4, stride: 1 x 1, margin: 6, bins: 10 sign: 1, params.C: 0.500000 metric: max
0.958140, cells: 1 x 1, blocks: 1 x 4, stride: 1 x 1, margin: 6, bins: 10 sign: 1, params.C: 0.700000 metric: max
0.958140, cells: 1 x 1, blocks: 1 x 4, stride: 1 x 1, margin: 6, bins: 10 sign: 1, params.C: 0.750000 metric: max
0.958140, cells: 1 x 1, blocks: 1 x 4, stride: 1 x 1, margin: 6, bins: 10 sign: 1, params.C: 0.800000 metric: max
0.968992, cells: 1 x 1, blocks: 1 x 4, stride: 1 x 1, margin: 6, bins: 10 sign: 1, params.C: 0.200000 metric: sum
0.970543, cells: 1 x 1, blocks: 1 x 4, stride: 1 x 1, margin: 6, bins: 10 sign: 1, params.C: 0.500000 metric: sum
0.969767, cells: 1 x 1, blocks: 1 x 4, stride: 1 x 1, margin: 6, bins: 10 sign: 1, params.C: 0.700000 metric: sum
0.970543, cells: 1 x 1, blocks: 1 x 4, stride: 1 x 1, margin: 6, bins: 10 sign: 1, params.C: 0.750000 metric: sum
0.969767, cells: 1 x 1, blocks: 1 x 4, stride: 1 x 1, margin: 6, bins: 10 sign: 1, params.C: 0.800000 metric: sum
0.970543, cells: 1 x 1, blocks: 1 x 4, stride: 1 x 1, margin: 6, bins: 9 sign: 1, params.C: 0.200000 metric: euclid
0.966667, cells: 1 x 1, blocks: 1 x 4, stride: 1 x 1, margin: 6, bins: 9 sign: 1, params.C: 0.500000 metric: euclid
0.967442, cells: 1 x 1, blocks: 1 x 4, stride: 1 x 1, margin: 6, bins: 9 sign: 1, params.C: 0.700000 metric: euclid
0.967442, cells: 1 x 1, blocks: 1 x 4, stride: 1 x 1, margin: 6, bins: 9 sign: 1, params.C: 0.750000 metric: euclid
0.967442, cells: 1 x 1, blocks: 1 x 4, stride: 1 x 1, margin: 6, bins: 9 sign: 1, params.C: 0.800000 metric: euclid
0.962791, cells: 1 x 1, blocks: 1 x 4, stride: 1 x 1, margin: 6, bins: 9 sign: 1, params.C: 0.200000 metric: max
0.960465, cells: 1 x 1, blocks: 1 x 4, stride: 1 x 1, margin: 6, bins: 9 sign: 1, params.C: 0.500000 metric: max
0.960465, cells: 1 x 1, blocks: 1 x 4, stride: 1 x 1, margin: 6, bins: 9 sign: 1, params.C: 0.700000 metric: max
0.960465, cells: 1 x 1, blocks: 1 x 4, stride: 1 x 1, margin: 6, bins: 9 sign: 1, params.C: 0.750000 metric: max
0.960465, cells: 1 x 1, blocks: 1 x 4, stride: 1 x 1, margin: 6, bins: 9 sign: 1, params.C: 0.800000 metric: max
0.969767, cells: 1 x 1, blocks: 1 x 4, stride: 1 x 1, margin: 6, bins: 9 sign: 1, params.C: 0.200000 metric: sum
0.973643, cells: 1 x 1, blocks: 1 x 4, stride: 1 x 1, margin: 6, bins: 9 sign: 1, params.C: 0.500000 metric: sum
0.974419, cells: 1 x 1, blocks: 1 x 4, stride: 1 x 1, margin: 6, bins: 9 sign: 1, params.C: 0.700000 metric: sum
0.973643, cells: 1 x 1, blocks: 1 x 4, stride: 1 x 1, margin: 6, bins: 9 sign: 1, params.C: 0.750000 metric: sum
0.973643, cells: 1 x 1, blocks: 1 x 4, stride: 1 x 1, margin: 6, bins: 9 sign: 1, params.C: 0.800000 metric: sum
0.959690, cells: 1 x 1, blocks: 1 x 4, stride: 1 x 1, margin: 6, bins: 8 sign: 1, params.C: 0.200000 metric: euclid
0.956589, cells: 1 x 1, blocks: 1 x 4, stride: 1 x 1, margin: 6, bins: 8 sign: 1, params.C: 0.500000 metric: euclid
0.956589, cells: 1 x 1, blocks: 1 x 4, stride: 1 x 1, margin: 6, bins: 8 sign: 1, params.C: 0.700000 metric: euclid
0.956589, cells: 1 x 1, blocks: 1 x 4, stride: 1 x 1, margin: 6, bins: 8 sign: 1, params.C: 0.750000 metric: euclid
0.956589, cells: 1 x 1, blocks: 1 x 4, stride: 1 x 1, margin: 6, bins: 8 sign: 1, params.C: 0.800000 metric: euclid
0.954264, cells: 1 x 1, blocks: 1 x 4, stride: 1 x 1, margin: 6, bins: 8 sign: 1, params.C: 0.200000 metric: max
0.953488, cells: 1 x 1, blocks: 1 x 4, stride: 1 x 1, margin: 6, bins: 8 sign: 1, params.C: 0.500000 metric: max
0.952713, cells: 1 x 1, blocks: 1 x 4, stride: 1 x 1, margin: 6, bins: 8 sign: 1, params.C: 0.700000 metric: max
0.952713, cells: 1 x 1, blocks: 1 x 4, stride: 1 x 1, margin: 6, bins: 8 sign: 1, params.C: 0.750000 metric: max
0.952713, cells: 1 x 1, blocks: 1 x 4, stride: 1 x 1, margin: 6, bins: 8 sign: 1, params.C: 0.800000 metric: max
0.964341, cells: 1 x 1, blocks: 1 x 4, stride: 1 x 1, margin: 6, bins: 8 sign: 1, params.C: 0.200000 metric: sum
0.961240, cells: 1 x 1, blocks: 1 x 4, stride: 1 x 1, margin: 6, bins: 8 sign: 1, params.C: 0.500000 metric: sum
0.962016, cells: 1 x 1, blocks: 1 x 4, stride: 1 x 1, margin: 6, bins: 8 sign: 1, params.C: 0.700000 metric: sum
0.962016, cells: 1 x 1, blocks: 1 x 4, stride: 1 x 1, margin: 6, bins: 8 sign: 1, params.C: 0.750000 metric: sum
0.962791, cells: 1 x 1, blocks: 1 x 4, stride: 1 x 1, margin: 6, bins: 8 sign: 1, params.C: 0.800000 metric: sum
0.967442, cells: 1 x 1, blocks: 1 x 5, stride: 1 x 1, margin: 6, bins: 18 sign: 1, params.C: 0.200000 metric: euclid
0.964341, cells: 1 x 1, blocks: 1 x 5, stride: 1 x 1, margin: 6, bins: 18 sign: 1, params.C: 0.500000 metric: euclid
0.962016, cells: 1 x 1, blocks: 1 x 5, stride: 1 x 1, margin: 6, bins: 18 sign: 1, params.C: 0.700000 metric: euclid
0.962016, cells: 1 x 1, blocks: 1 x 5, stride: 1 x 1, margin: 6, bins: 18 sign: 1, params.C: 0.750000 metric: euclid
0.962016, cells: 1 x 1, blocks: 1 x 5, stride: 1 x 1, margin: 6, bins: 18 sign: 1, params.C: 0.800000 metric: euclid
0.957364, cells: 1 x 1, blocks: 1 x 5, stride: 1 x 1, margin: 6, bins: 18 sign: 1, params.C: 0.200000 metric: max
0.955814, cells: 1 x 1, blocks: 1 x 5, stride: 1 x 1, margin: 6, bins: 18 sign: 1, params.C: 0.500000 metric: max
0.955814, cells: 1 x 1, blocks: 1 x 5, stride: 1 x 1, margin: 6, bins: 18 sign: 1, params.C: 0.700000 metric: max
0.955814, cells: 1 x 1, blocks: 1 x 5, stride: 1 x 1, margin: 6, bins: 18 sign: 1, params.C: 0.750000 metric: max
0.955814, cells: 1 x 1, blocks: 1 x 5, stride: 1 x 1, margin: 6, bins: 18 sign: 1, params.C: 0.800000 metric: max
0.964341, cells: 1 x 1, blocks: 1 x 5, stride: 1 x 1, margin: 6, bins: 18 sign: 1, params.C: 0.200000 metric: sum
0.963566, cells: 1 x 1, blocks: 1 x 5, stride: 1 x 1, margin: 6, bins: 18 sign: 1, params.C: 0.500000 metric: sum
0.963566, cells: 1 x 1, blocks: 1 x 5, stride: 1 x 1, margin: 6, bins: 18 sign: 1, params.C: 0.700000 metric: sum
0.963566, cells: 1 x 1, blocks: 1 x 5, stride: 1 x 1, margin: 6, bins: 18 sign: 1, params.C: 0.750000 metric: sum
0.964341, cells: 1 x 1, blocks: 1 x 5, stride: 1 x 1, margin: 6, bins: 18 sign: 1, params.C: 0.800000 metric: sum
0.964341, cells: 1 x 1, blocks: 1 x 5, stride: 1 x 1, margin: 6, bins: 10 sign: 1, params.C: 0.200000 metric: euclid
0.963566, cells: 1 x 1, blocks: 1 x 5, stride: 1 x 1, margin: 6, bins: 10 sign: 1, params.C: 0.500000 metric: euclid
0.963566, cells: 1 x 1, blocks: 1 x 5, stride: 1 x 1, margin: 6, bins: 10 sign: 1, params.C: 0.700000 metric: euclid
0.964341, cells: 1 x 1, blocks: 1 x 5, stride: 1 x 1, margin: 6, bins: 10 sign: 1, params.C: 0.750000 metric: euclid
0.964341, cells: 1 x 1, blocks: 1 x 5, stride: 1 x 1, margin: 6, bins: 10 sign: 1, params.C: 0.800000 metric: euclid
0.960465, cells: 1 x 1, blocks: 1 x 5, stride: 1 x 1, margin: 6, bins: 10 sign: 1, params.C: 0.200000 metric: max
0.958915, cells: 1 x 1, blocks: 1 x 5, stride: 1 x 1, margin: 6, bins: 10 sign: 1, params.C: 0.500000 metric: max
0.959690, cells: 1 x 1, blocks: 1 x 5, stride: 1 x 1, margin: 6, bins: 10 sign: 1, params.C: 0.700000 metric: max
0.959690, cells: 1 x 1, blocks: 1 x 5, stride: 1 x 1, margin: 6, bins: 10 sign: 1, params.C: 0.750000 metric: max
0.959690, cells: 1 x 1, blocks: 1 x 5, stride: 1 x 1, margin: 6, bins: 10 sign: 1, params.C: 0.800000 metric: max
0.968217, cells: 1 x 1, blocks: 1 x 5, stride: 1 x 1, margin: 6, bins: 10 sign: 1, params.C: 0.200000 metric: sum
0.968217, cells: 1 x 1, blocks: 1 x 5, stride: 1 x 1, margin: 6, bins: 10 sign: 1, params.C: 0.500000 metric: sum
0.965116, cells: 1 x 1, blocks: 1 x 5, stride: 1 x 1, margin: 6, bins: 10 sign: 1, params.C: 0.700000 metric: sum
0.965116, cells: 1 x 1, blocks: 1 x 5, stride: 1 x 1, margin: 6, bins: 10 sign: 1, params.C: 0.750000 metric: sum
0.965116, cells: 1 x 1, blocks: 1 x 5, stride: 1 x 1, margin: 6, bins: 10 sign: 1, params.C: 0.800000 metric: sum
0.971318, cells: 1 x 1, blocks: 1 x 5, stride: 1 x 1, margin: 6, bins: 9 sign: 1, params.C: 0.200000 metric: euclid
0.968992, cells: 1 x 1, blocks: 1 x 5, stride: 1 x 1, margin: 6, bins: 9 sign: 1, params.C: 0.500000 metric: euclid
0.966667, cells: 1 x 1, blocks: 1 x 5, stride: 1 x 1, margin: 6, bins: 9 sign: 1, params.C: 0.700000 metric: euclid
0.965116, cells: 1 x 1, blocks: 1 x 5, stride: 1 x 1, margin: 6, bins: 9 sign: 1, params.C: 0.750000 metric: euclid
0.965116, cells: 1 x 1, blocks: 1 x 5, stride: 1 x 1, margin: 6, bins: 9 sign: 1, params.C: 0.800000 metric: euclid
0.962791, cells: 1 x 1, blocks: 1 x 5, stride: 1 x 1, margin: 6, bins: 9 sign: 1, params.C: 0.200000 metric: max
0.961240, cells: 1 x 1, blocks: 1 x 5, stride: 1 x 1, margin: 6, bins: 9 sign: 1, params.C: 0.500000 metric: max
0.961240, cells: 1 x 1, blocks: 1 x 5, stride: 1 x 1, margin: 6, bins: 9 sign: 1, params.C: 0.700000 metric: max
0.961240, cells: 1 x 1, blocks: 1 x 5, stride: 1 x 1, margin: 6, bins: 9 sign: 1, params.C: 0.750000 metric: max
0.961240, cells: 1 x 1, blocks: 1 x 5, stride: 1 x 1, margin: 6, bins: 9 sign: 1, params.C: 0.800000 metric: max
0.972093, cells: 1 x 1, blocks: 1 x 5, stride: 1 x 1, margin: 6, bins: 9 sign: 1, params.C: 0.200000 metric: sum
0.975194, cells: 1 x 1, blocks: 1 x 5, stride: 1 x 1, margin: 6, bins: 9 sign: 1, params.C: 0.500000 metric: sum
0.973643, cells: 1 x 1, blocks: 1 x 5, stride: 1 x 1, margin: 6, bins: 9 sign: 1, params.C: 0.700000 metric: sum
0.973643, cells: 1 x 1, blocks: 1 x 5, stride: 1 x 1, margin: 6, bins: 9 sign: 1, params.C: 0.750000 metric: sum
0.973643, cells: 1 x 1, blocks: 1 x 5, stride: 1 x 1, margin: 6, bins: 9 sign: 1, params.C: 0.800000 metric: sum
0.962016, cells: 1 x 1, blocks: 1 x 5, stride: 1 x 1, margin: 6, bins: 8 sign: 1, params.C: 0.200000 metric: euclid
0.957364, cells: 1 x 1, blocks: 1 x 5, stride: 1 x 1, margin: 6, bins: 8 sign: 1, params.C: 0.500000 metric: euclid
0.955814, cells: 1 x 1, blocks: 1 x 5, stride: 1 x 1, margin: 6, bins: 8 sign: 1, params.C: 0.700000 metric: euclid
0.955814, cells: 1 x 1, blocks: 1 x 5, stride: 1 x 1, margin: 6, bins: 8 sign: 1, params.C: 0.750000 metric: euclid
0.955814, cells: 1 x 1, blocks: 1 x 5, stride: 1 x 1, margin: 6, bins: 8 sign: 1, params.C: 0.800000 metric: euclid
0.959690, cells: 1 x 1, blocks: 1 x 5, stride: 1 x 1, margin: 6, bins: 8 sign: 1, params.C: 0.200000 metric: max
0.958140, cells: 1 x 1, blocks: 1 x 5, stride: 1 x 1, margin: 6, bins: 8 sign: 1, params.C: 0.500000 metric: max
0.957364, cells: 1 x 1, blocks: 1 x 5, stride: 1 x 1, margin: 6, bins: 8 sign: 1, params.C: 0.700000 metric: max
0.957364, cells: 1 x 1, blocks: 1 x 5, stride: 1 x 1, margin: 6, bins: 8 sign: 1, params.C: 0.750000 metric: max
0.957364, cells: 1 x 1, blocks: 1 x 5, stride: 1 x 1, margin: 6, bins: 8 sign: 1, params.C: 0.800000 metric: max
0.962791, cells: 1 x 1, blocks: 1 x 5, stride: 1 x 1, margin: 6, bins: 8 sign: 1, params.C: 0.200000 metric: sum
0.962016, cells: 1 x 1, blocks: 1 x 5, stride: 1 x 1, margin: 6, bins: 8 sign: 1, params.C: 0.500000 metric: sum
0.961240, cells: 1 x 1, blocks: 1 x 5, stride: 1 x 1, margin: 6, bins: 8 sign: 1, params.C: 0.700000 metric: sum
0.961240, cells: 1 x 1, blocks: 1 x 5, stride: 1 x 1, margin: 6, bins: 8 sign: 1, params.C: 0.750000 metric: sum
0.961240, cells: 1 x 1, blocks: 1 x 5, stride: 1 x 1, margin: 6, bins: 8 sign: 1, params.C: 0.800000 metric: sum
0.962016, cells: 1 x 1, blocks: 1 x 6, stride: 1 x 1, margin: 6, bins: 18 sign: 1, params.C: 0.200000 metric: euclid
0.960465, cells: 1 x 1, blocks: 1 x 6, stride: 1 x 1, margin: 6, bins: 18 sign: 1, params.C: 0.500000 metric: euclid
0.959690, cells: 1 x 1, blocks: 1 x 6, stride: 1 x 1, margin: 6, bins: 18 sign: 1, params.C: 0.700000 metric: euclid
0.959690, cells: 1 x 1, blocks: 1 x 6, stride: 1 x 1, margin: 6, bins: 18 sign: 1, params.C: 0.750000 metric: euclid
0.959690, cells: 1 x 1, blocks: 1 x 6, stride: 1 x 1, margin: 6, bins: 18 sign: 1, params.C: 0.800000 metric: euclid
0.957364, cells: 1 x 1, blocks: 1 x 6, stride: 1 x 1, margin: 6, bins: 18 sign: 1, params.C: 0.200000 metric: max
0.955039, cells: 1 x 1, blocks: 1 x 6, stride: 1 x 1, margin: 6, bins: 18 sign: 1, params.C: 0.500000 metric: max
0.953488, cells: 1 x 1, blocks: 1 x 6, stride: 1 x 1, margin: 6, bins: 18 sign: 1, params.C: 0.700000 metric: max
0.953488, cells: 1 x 1, blocks: 1 x 6, stride: 1 x 1, margin: 6, bins: 18 sign: 1, params.C: 0.750000 metric: max
0.953488, cells: 1 x 1, blocks: 1 x 6, stride: 1 x 1, margin: 6, bins: 18 sign: 1, params.C: 0.800000 metric: max
0.960465, cells: 1 x 1, blocks: 1 x 6, stride: 1 x 1, margin: 6, bins: 18 sign: 1, params.C: 0.200000 metric: sum
0.963566, cells: 1 x 1, blocks: 1 x 6, stride: 1 x 1, margin: 6, bins: 18 sign: 1, params.C: 0.500000 metric: sum
0.964341, cells: 1 x 1, blocks: 1 x 6, stride: 1 x 1, margin: 6, bins: 18 sign: 1, params.C: 0.700000 metric: sum
0.964341, cells: 1 x 1, blocks: 1 x 6, stride: 1 x 1, margin: 6, bins: 18 sign: 1, params.C: 0.750000 metric: sum
0.964341, cells: 1 x 1, blocks: 1 x 6, stride: 1 x 1, margin: 6, bins: 18 sign: 1, params.C: 0.800000 metric: sum
0.965891, cells: 1 x 1, blocks: 1 x 6, stride: 1 x 1, margin: 6, bins: 10 sign: 1, params.C: 0.200000 metric: euclid
0.963566, cells: 1 x 1, blocks: 1 x 6, stride: 1 x 1, margin: 6, bins: 10 sign: 1, params.C: 0.500000 metric: euclid
0.962791, cells: 1 x 1, blocks: 1 x 6, stride: 1 x 1, margin: 6, bins: 10 sign: 1, params.C: 0.700000 metric: euclid
0.962791, cells: 1 x 1, blocks: 1 x 6, stride: 1 x 1, margin: 6, bins: 10 sign: 1, params.C: 0.750000 metric: euclid
0.962791, cells: 1 x 1, blocks: 1 x 6, stride: 1 x 1, margin: 6, bins: 10 sign: 1, params.C: 0.800000 metric: euclid
0.961240, cells: 1 x 1, blocks: 1 x 6, stride: 1 x 1, margin: 6, bins: 10 sign: 1, params.C: 0.200000 metric: max
0.962016, cells: 1 x 1, blocks: 1 x 6, stride: 1 x 1, margin: 6, bins: 10 sign: 1, params.C: 0.500000 metric: max
0.962791, cells: 1 x 1, blocks: 1 x 6, stride: 1 x 1, margin: 6, bins: 10 sign: 1, params.C: 0.700000 metric: max
0.962791, cells: 1 x 1, blocks: 1 x 6, stride: 1 x 1, margin: 6, bins: 10 sign: 1, params.C: 0.750000 metric: max
0.962791, cells: 1 x 1, blocks: 1 x 6, stride: 1 x 1, margin: 6, bins: 10 sign: 1, params.C: 0.800000 metric: max
0.966667, cells: 1 x 1, blocks: 1 x 6, stride: 1 x 1, margin: 6, bins: 10 sign: 1, params.C: 0.200000 metric: sum
0.967442, cells: 1 x 1, blocks: 1 x 6, stride: 1 x 1, margin: 6, bins: 10 sign: 1, params.C: 0.500000 metric: sum
0.967442, cells: 1 x 1, blocks: 1 x 6, stride: 1 x 1, margin: 6, bins: 10 sign: 1, params.C: 0.700000 metric: sum
0.966667, cells: 1 x 1, blocks: 1 x 6, stride: 1 x 1, margin: 6, bins: 10 sign: 1, params.C: 0.750000 metric: sum
0.966667, cells: 1 x 1, blocks: 1 x 6, stride: 1 x 1, margin: 6, bins: 10 sign: 1, params.C: 0.800000 metric: sum
0.971318, cells: 1 x 1, blocks: 1 x 6, stride: 1 x 1, margin: 6, bins: 9 sign: 1, params.C: 0.200000 metric: euclid
0.968217, cells: 1 x 1, blocks: 1 x 6, stride: 1 x 1, margin: 6, bins: 9 sign: 1, params.C: 0.500000 metric: euclid
0.965116, cells: 1 x 1, blocks: 1 x 6, stride: 1 x 1, margin: 6, bins: 9 sign: 1, params.C: 0.700000 metric: euclid
0.965116, cells: 1 x 1, blocks: 1 x 6, stride: 1 x 1, margin: 6, bins: 9 sign: 1, params.C: 0.750000 metric: euclid
0.964341, cells: 1 x 1, blocks: 1 x 6, stride: 1 x 1, margin: 6, bins: 9 sign: 1, params.C: 0.800000 metric: euclid
0.962791, cells: 1 x 1, blocks: 1 x 6, stride: 1 x 1, margin: 6, bins: 9 sign: 1, params.C: 0.200000 metric: max
0.962016, cells: 1 x 1, blocks: 1 x 6, stride: 1 x 1, margin: 6, bins: 9 sign: 1, params.C: 0.500000 metric: max
0.961240, cells: 1 x 1, blocks: 1 x 6, stride: 1 x 1, margin: 6, bins: 9 sign: 1, params.C: 0.700000 metric: max
0.961240, cells: 1 x 1, blocks: 1 x 6, stride: 1 x 1, margin: 6, bins: 9 sign: 1, params.C: 0.750000 metric: max
0.961240, cells: 1 x 1, blocks: 1 x 6, stride: 1 x 1, margin: 6, bins: 9 sign: 1, params.C: 0.800000 metric: max
0.970543, cells: 1 x 1, blocks: 1 x 6, stride: 1 x 1, margin: 6, bins: 9 sign: 1, params.C: 0.200000 metric: sum
0.973643, cells: 1 x 1, blocks: 1 x 6, stride: 1 x 1, margin: 6, bins: 9 sign: 1, params.C: 0.500000 metric: sum
0.975194, cells: 1 x 1, blocks: 1 x 6, stride: 1 x 1, margin: 6, bins: 9 sign: 1, params.C: 0.700000 metric: sum
0.975194, cells: 1 x 1, blocks: 1 x 6, stride: 1 x 1, margin: 6, bins: 9 sign: 1, params.C: 0.750000 metric: sum
0.975194, cells: 1 x 1, blocks: 1 x 6, stride: 1 x 1, margin: 6, bins: 9 sign: 1, params.C: 0.800000 metric: sum
0.959690, cells: 1 x 1, blocks: 1 x 6, stride: 1 x 1, margin: 6, bins: 8 sign: 1, params.C: 0.200000 metric: euclid
0.958915, cells: 1 x 1, blocks: 1 x 6, stride: 1 x 1, margin: 6, bins: 8 sign: 1, params.C: 0.500000 metric: euclid
0.958140, cells: 1 x 1, blocks: 1 x 6, stride: 1 x 1, margin: 6, bins: 8 sign: 1, params.C: 0.700000 metric: euclid
0.958140, cells: 1 x 1, blocks: 1 x 6, stride: 1 x 1, margin: 6, bins: 8 sign: 1, params.C: 0.750000 metric: euclid
0.958140, cells: 1 x 1, blocks: 1 x 6, stride: 1 x 1, margin: 6, bins: 8 sign: 1, params.C: 0.800000 metric: euclid
0.954264, cells: 1 x 1, blocks: 1 x 6, stride: 1 x 1, margin: 6, bins: 8 sign: 1, params.C: 0.200000 metric: max
0.953488, cells: 1 x 1, blocks: 1 x 6, stride: 1 x 1, margin: 6, bins: 8 sign: 1, params.C: 0.500000 metric: max
0.952713, cells: 1 x 1, blocks: 1 x 6, stride: 1 x 1, margin: 6, bins: 8 sign: 1, params.C: 0.700000 metric: max
0.952713, cells: 1 x 1, blocks: 1 x 6, stride: 1 x 1, margin: 6, bins: 8 sign: 1, params.C: 0.750000 metric: max
0.952713, cells: 1 x 1, blocks: 1 x 6, stride: 1 x 1, margin: 6, bins: 8 sign: 1, params.C: 0.800000 metric: max
0.959690, cells: 1 x 1, blocks: 1 x 6, stride: 1 x 1, margin: 6, bins: 8 sign: 1, params.C: 0.200000 metric: sum
0.960465, cells: 1 x 1, blocks: 1 x 6, stride: 1 x 1, margin: 6, bins: 8 sign: 1, params.C: 0.500000 metric: sum
0.959690, cells: 1 x 1, blocks: 1 x 6, stride: 1 x 1, margin: 6, bins: 8 sign: 1, params.C: 0.700000 metric: sum
0.959690, cells: 1 x 1, blocks: 1 x 6, stride: 1 x 1, margin: 6, bins: 8 sign: 1, params.C: 0.750000 metric: sum
0.960465, cells: 1 x 1, blocks: 1 x 6, stride: 1 x 1, margin: 6, bins: 8 sign: 1, params.C: 0.800000 metric: sum
0.960465, cells: 1 x 1, blocks: 1 x 7, stride: 1 x 1, margin: 6, bins: 18 sign: 1, params.C: 0.200000 metric: euclid
0.958140, cells: 1 x 1, blocks: 1 x 7, stride: 1 x 1, margin: 6, bins: 18 sign: 1, params.C: 0.500000 metric: euclid
0.957364, cells: 1 x 1, blocks: 1 x 7, stride: 1 x 1, margin: 6, bins: 18 sign: 1, params.C: 0.700000 metric: euclid
0.957364, cells: 1 x 1, blocks: 1 x 7, stride: 1 x 1, margin: 6, bins: 18 sign: 1, params.C: 0.750000 metric: euclid
0.957364, cells: 1 x 1, blocks: 1 x 7, stride: 1 x 1, margin: 6, bins: 18 sign: 1, params.C: 0.800000 metric: euclid
0.955814, cells: 1 x 1, blocks: 1 x 7, stride: 1 x 1, margin: 6, bins: 18 sign: 1, params.C: 0.200000 metric: max
0.954264, cells: 1 x 1, blocks: 1 x 7, stride: 1 x 1, margin: 6, bins: 18 sign: 1, params.C: 0.500000 metric: max
0.954264, cells: 1 x 1, blocks: 1 x 7, stride: 1 x 1, margin: 6, bins: 18 sign: 1, params.C: 0.700000 metric: max
0.954264, cells: 1 x 1, blocks: 1 x 7, stride: 1 x 1, margin: 6, bins: 18 sign: 1, params.C: 0.750000 metric: max
0.954264, cells: 1 x 1, blocks: 1 x 7, stride: 1 x 1, margin: 6, bins: 18 sign: 1, params.C: 0.800000 metric: max
0.960465, cells: 1 x 1, blocks: 1 x 7, stride: 1 x 1, margin: 6, bins: 18 sign: 1, params.C: 0.200000 metric: sum
0.963566, cells: 1 x 1, blocks: 1 x 7, stride: 1 x 1, margin: 6, bins: 18 sign: 1, params.C: 0.500000 metric: sum
0.965116, cells: 1 x 1, blocks: 1 x 7, stride: 1 x 1, margin: 6, bins: 18 sign: 1, params.C: 0.700000 metric: sum
0.964341, cells: 1 x 1, blocks: 1 x 7, stride: 1 x 1, margin: 6, bins: 18 sign: 1, params.C: 0.750000 metric: sum
0.964341, cells: 1 x 1, blocks: 1 x 7, stride: 1 x 1, margin: 6, bins: 18 sign: 1, params.C: 0.800000 metric: sum
0.964341, cells: 1 x 1, blocks: 1 x 7, stride: 1 x 1, margin: 6, bins: 10 sign: 1, params.C: 0.200000 metric: euclid
0.962791, cells: 1 x 1, blocks: 1 x 7, stride: 1 x 1, margin: 6, bins: 10 sign: 1, params.C: 0.500000 metric: euclid
0.962791, cells: 1 x 1, blocks: 1 x 7, stride: 1 x 1, margin: 6, bins: 10 sign: 1, params.C: 0.700000 metric: euclid
0.962016, cells: 1 x 1, blocks: 1 x 7, stride: 1 x 1, margin: 6, bins: 10 sign: 1, params.C: 0.750000 metric: euclid
0.962016, cells: 1 x 1, blocks: 1 x 7, stride: 1 x 1, margin: 6, bins: 10 sign: 1, params.C: 0.800000 metric: euclid
0.959690, cells: 1 x 1, blocks: 1 x 7, stride: 1 x 1, margin: 6, bins: 10 sign: 1, params.C: 0.200000 metric: max
0.959690, cells: 1 x 1, blocks: 1 x 7, stride: 1 x 1, margin: 6, bins: 10 sign: 1, params.C: 0.500000 metric: max
0.959690, cells: 1 x 1, blocks: 1 x 7, stride: 1 x 1, margin: 6, bins: 10 sign: 1, params.C: 0.700000 metric: max
0.959690, cells: 1 x 1, blocks: 1 x 7, stride: 1 x 1, margin: 6, bins: 10 sign: 1, params.C: 0.750000 metric: max
0.959690, cells: 1 x 1, blocks: 1 x 7, stride: 1 x 1, margin: 6, bins: 10 sign: 1, params.C: 0.800000 metric: max
0.963566, cells: 1 x 1, blocks: 1 x 7, stride: 1 x 1, margin: 6, bins: 10 sign: 1, params.C: 0.200000 metric: sum
0.965891, cells: 1 x 1, blocks: 1 x 7, stride: 1 x 1, margin: 6, bins: 10 sign: 1, params.C: 0.500000 metric: sum
0.964341, cells: 1 x 1, blocks: 1 x 7, stride: 1 x 1, margin: 6, bins: 10 sign: 1, params.C: 0.700000 metric: sum
0.964341, cells: 1 x 1, blocks: 1 x 7, stride: 1 x 1, margin: 6, bins: 10 sign: 1, params.C: 0.750000 metric: sum
0.964341, cells: 1 x 1, blocks: 1 x 7, stride: 1 x 1, margin: 6, bins: 10 sign: 1, params.C: 0.800000 metric: sum
0.968992, cells: 1 x 1, blocks: 1 x 7, stride: 1 x 1, margin: 6, bins: 9 sign: 1, params.C: 0.200000 metric: euclid
0.966667, cells: 1 x 1, blocks: 1 x 7, stride: 1 x 1, margin: 6, bins: 9 sign: 1, params.C: 0.500000 metric: euclid
0.963566, cells: 1 x 1, blocks: 1 x 7, stride: 1 x 1, margin: 6, bins: 9 sign: 1, params.C: 0.700000 metric: euclid
0.963566, cells: 1 x 1, blocks: 1 x 7, stride: 1 x 1, margin: 6, bins: 9 sign: 1, params.C: 0.750000 metric: euclid
0.963566, cells: 1 x 1, blocks: 1 x 7, stride: 1 x 1, margin: 6, bins: 9 sign: 1, params.C: 0.800000 metric: euclid
0.962016, cells: 1 x 1, blocks: 1 x 7, stride: 1 x 1, margin: 6, bins: 9 sign: 1, params.C: 0.200000 metric: max
0.958915, cells: 1 x 1, blocks: 1 x 7, stride: 1 x 1, margin: 6, bins: 9 sign: 1, params.C: 0.500000 metric: max
0.958140, cells: 1 x 1, blocks: 1 x 7, stride: 1 x 1, margin: 6, bins: 9 sign: 1, params.C: 0.700000 metric: max
0.958140, cells: 1 x 1, blocks: 1 x 7, stride: 1 x 1, margin: 6, bins: 9 sign: 1, params.C: 0.750000 metric: max
0.958140, cells: 1 x 1, blocks: 1 x 7, stride: 1 x 1, margin: 6, bins: 9 sign: 1, params.C: 0.800000 metric: max
0.967442, cells: 1 x 1, blocks: 1 x 7, stride: 1 x 1, margin: 6, bins: 9 sign: 1, params.C: 0.200000 metric: sum
0.968992, cells: 1 x 1, blocks: 1 x 7, stride: 1 x 1, margin: 6, bins: 9 sign: 1, params.C: 0.500000 metric: sum
0.968217, cells: 1 x 1, blocks: 1 x 7, stride: 1 x 1, margin: 6, bins: 9 sign: 1, params.C: 0.700000 metric: sum
0.968217, cells: 1 x 1, blocks: 1 x 7, stride: 1 x 1, margin: 6, bins: 9 sign: 1, params.C: 0.750000 metric: sum
0.968217, cells: 1 x 1, blocks: 1 x 7, stride: 1 x 1, margin: 6, bins: 9 sign: 1, params.C: 0.800000 metric: sum
0.956589, cells: 1 x 1, blocks: 1 x 7, stride: 1 x 1, margin: 6, bins: 8 sign: 1, params.C: 0.200000 metric: euclid
0.953488, cells: 1 x 1, blocks: 1 x 7, stride: 1 x 1, margin: 6, bins: 8 sign: 1, params.C: 0.500000 metric: euclid
0.955039, cells: 1 x 1, blocks: 1 x 7, stride: 1 x 1, margin: 6, bins: 8 sign: 1, params.C: 0.700000 metric: euclid
0.955039, cells: 1 x 1, blocks: 1 x 7, stride: 1 x 1, margin: 6, bins: 8 sign: 1, params.C: 0.750000 metric: euclid
0.955814, cells: 1 x 1, blocks: 1 x 7, stride: 1 x 1, margin: 6, bins: 8 sign: 1, params.C: 0.800000 metric: euclid
0.954264, cells: 1 x 1, blocks: 1 x 7, stride: 1 x 1, margin: 6, bins: 8 sign: 1, params.C: 0.200000 metric: max
0.955814, cells: 1 x 1, blocks: 1 x 7, stride: 1 x 1, margin: 6, bins: 8 sign: 1, params.C: 0.500000 metric: max
0.955814, cells: 1 x 1, blocks: 1 x 7, stride: 1 x 1, margin: 6, bins: 8 sign: 1, params.C: 0.700000 metric: max
0.955814, cells: 1 x 1, blocks: 1 x 7, stride: 1 x 1, margin: 6, bins: 8 sign: 1, params.C: 0.750000 metric: max
0.955814, cells: 1 x 1, blocks: 1 x 7, stride: 1 x 1, margin: 6, bins: 8 sign: 1, params.C: 0.800000 metric: max
0.957364, cells: 1 x 1, blocks: 1 x 7, stride: 1 x 1, margin: 6, bins: 8 sign: 1, params.C: 0.200000 metric: sum
0.959690, cells: 1 x 1, blocks: 1 x 7, stride: 1 x 1, margin: 6, bins: 8 sign: 1, params.C: 0.500000 metric: sum
0.960465, cells: 1 x 1, blocks: 1 x 7, stride: 1 x 1, margin: 6, bins: 8 sign: 1, params.C: 0.700000 metric: sum
0.959690, cells: 1 x 1, blocks: 1 x 7, stride: 1 x 1, margin: 6, bins: 8 sign: 1, params.C: 0.750000 metric: sum
0.960465, cells: 1 x 1, blocks: 1 x 7, stride: 1 x 1, margin: 6, bins: 8 sign: 1, params.C: 0.800000 metric: sum
0.958140, cells: 1 x 1, blocks: 1 x 8, stride: 1 x 1, margin: 6, bins: 18 sign: 1, params.C: 0.200000 metric: euclid
0.959690, cells: 1 x 1, blocks: 1 x 8, stride: 1 x 1, margin: 6, bins: 18 sign: 1, params.C: 0.500000 metric: euclid
0.959690, cells: 1 x 1, blocks: 1 x 8, stride: 1 x 1, margin: 6, bins: 18 sign: 1, params.C: 0.700000 metric: euclid
0.959690, cells: 1 x 1, blocks: 1 x 8, stride: 1 x 1, margin: 6, bins: 18 sign: 1, params.C: 0.750000 metric: euclid
0.959690, cells: 1 x 1, blocks: 1 x 8, stride: 1 x 1, margin: 6, bins: 18 sign: 1, params.C: 0.800000 metric: euclid
0.953488, cells: 1 x 1, blocks: 1 x 8, stride: 1 x 1, margin: 6, bins: 18 sign: 1, params.C: 0.200000 metric: max
0.952713, cells: 1 x 1, blocks: 1 x 8, stride: 1 x 1, margin: 6, bins: 18 sign: 1, params.C: 0.500000 metric: max
0.952713, cells: 1 x 1, blocks: 1 x 8, stride: 1 x 1, margin: 6, bins: 18 sign: 1, params.C: 0.700000 metric: max
0.952713, cells: 1 x 1, blocks: 1 x 8, stride: 1 x 1, margin: 6, bins: 18 sign: 1, params.C: 0.750000 metric: max
0.952713, cells: 1 x 1, blocks: 1 x 8, stride: 1 x 1, margin: 6, bins: 18 sign: 1, params.C: 0.800000 metric: max
0.956589, cells: 1 x 1, blocks: 1 x 8, stride: 1 x 1, margin: 6, bins: 18 sign: 1, params.C: 0.200000 metric: sum
0.959690, cells: 1 x 1, blocks: 1 x 8, stride: 1 x 1, margin: 6, bins: 18 sign: 1, params.C: 0.500000 metric: sum
0.961240, cells: 1 x 1, blocks: 1 x 8, stride: 1 x 1, margin: 6, bins: 18 sign: 1, params.C: 0.700000 metric: sum
0.961240, cells: 1 x 1, blocks: 1 x 8, stride: 1 x 1, margin: 6, bins: 18 sign: 1, params.C: 0.750000 metric: sum
0.961240, cells: 1 x 1, blocks: 1 x 8, stride: 1 x 1, margin: 6, bins: 18 sign: 1, params.C: 0.800000 metric: sum
0.961240, cells: 1 x 1, blocks: 1 x 8, stride: 1 x 1, margin: 6, bins: 10 sign: 1, params.C: 0.200000 metric: euclid
0.960465, cells: 1 x 1, blocks: 1 x 8, stride: 1 x 1, margin: 6, bins: 10 sign: 1, params.C: 0.500000 metric: euclid
0.959690, cells: 1 x 1, blocks: 1 x 8, stride: 1 x 1, margin: 6, bins: 10 sign: 1, params.C: 0.700000 metric: euclid
0.959690, cells: 1 x 1, blocks: 1 x 8, stride: 1 x 1, margin: 6, bins: 10 sign: 1, params.C: 0.750000 metric: euclid
0.958140, cells: 1 x 1, blocks: 1 x 8, stride: 1 x 1, margin: 6, bins: 10 sign: 1, params.C: 0.800000 metric: euclid
0.953488, cells: 1 x 1, blocks: 1 x 8, stride: 1 x 1, margin: 6, bins: 10 sign: 1, params.C: 0.200000 metric: max
0.952713, cells: 1 x 1, blocks: 1 x 8, stride: 1 x 1, margin: 6, bins: 10 sign: 1, params.C: 0.500000 metric: max
0.952713, cells: 1 x 1, blocks: 1 x 8, stride: 1 x 1, margin: 6, bins: 10 sign: 1, params.C: 0.700000 metric: max
0.952713, cells: 1 x 1, blocks: 1 x 8, stride: 1 x 1, margin: 6, bins: 10 sign: 1, params.C: 0.750000 metric: max
0.952713, cells: 1 x 1, blocks: 1 x 8, stride: 1 x 1, margin: 6, bins: 10 sign: 1, params.C: 0.800000 metric: max
0.960465, cells: 1 x 1, blocks: 1 x 8, stride: 1 x 1, margin: 6, bins: 10 sign: 1, params.C: 0.200000 metric: sum
0.962791, cells: 1 x 1, blocks: 1 x 8, stride: 1 x 1, margin: 6, bins: 10 sign: 1, params.C: 0.500000 metric: sum
0.962791, cells: 1 x 1, blocks: 1 x 8, stride: 1 x 1, margin: 6, bins: 10 sign: 1, params.C: 0.700000 metric: sum
0.963566, cells: 1 x 1, blocks: 1 x 8, stride: 1 x 1, margin: 6, bins: 10 sign: 1, params.C: 0.750000 metric: sum
0.963566, cells: 1 x 1, blocks: 1 x 8, stride: 1 x 1, margin: 6, bins: 10 sign: 1, params.C: 0.800000 metric: sum
0.967442, cells: 1 x 1, blocks: 1 x 8, stride: 1 x 1, margin: 6, bins: 9 sign: 1, params.C: 0.200000 metric: euclid
0.965891, cells: 1 x 1, blocks: 1 x 8, stride: 1 x 1, margin: 6, bins: 9 sign: 1, params.C: 0.500000 metric: euclid
0.963566, cells: 1 x 1, blocks: 1 x 8, stride: 1 x 1, margin: 6, bins: 9 sign: 1, params.C: 0.700000 metric: euclid
0.963566, cells: 1 x 1, blocks: 1 x 8, stride: 1 x 1, margin: 6, bins: 9 sign: 1, params.C: 0.750000 metric: euclid
0.962791, cells: 1 x 1, blocks: 1 x 8, stride: 1 x 1, margin: 6, bins: 9 sign: 1, params.C: 0.800000 metric: euclid
0.959690, cells: 1 x 1, blocks: 1 x 8, stride: 1 x 1, margin: 6, bins: 9 sign: 1, params.C: 0.200000 metric: max
0.955814, cells: 1 x 1, blocks: 1 x 8, stride: 1 x 1, margin: 6, bins: 9 sign: 1, params.C: 0.500000 metric: max
0.953488, cells: 1 x 1, blocks: 1 x 8, stride: 1 x 1, margin: 6, bins: 9 sign: 1, params.C: 0.700000 metric: max
0.952713, cells: 1 x 1, blocks: 1 x 8, stride: 1 x 1, margin: 6, bins: 9 sign: 1, params.C: 0.750000 metric: max
0.952713, cells: 1 x 1, blocks: 1 x 8, stride: 1 x 1, margin: 6, bins: 9 sign: 1, params.C: 0.800000 metric: max
0.963566, cells: 1 x 1, blocks: 1 x 8, stride: 1 x 1, margin: 6, bins: 9 sign: 1, params.C: 0.200000 metric: sum
0.965891, cells: 1 x 1, blocks: 1 x 8, stride: 1 x 1, margin: 6, bins: 9 sign: 1, params.C: 0.500000 metric: sum
0.965891, cells: 1 x 1, blocks: 1 x 8, stride: 1 x 1, margin: 6, bins: 9 sign: 1, params.C: 0.700000 metric: sum
0.965891, cells: 1 x 1, blocks: 1 x 8, stride: 1 x 1, margin: 6, bins: 9 sign: 1, params.C: 0.750000 metric: sum
0.965891, cells: 1 x 1, blocks: 1 x 8, stride: 1 x 1, margin: 6, bins: 9 sign: 1, params.C: 0.800000 metric: sum
0.953488, cells: 1 x 1, blocks: 1 x 8, stride: 1 x 1, margin: 6, bins: 8 sign: 1, params.C: 0.200000 metric: euclid
0.951163, cells: 1 x 1, blocks: 1 x 8, stride: 1 x 1, margin: 6, bins: 8 sign: 1, params.C: 0.500000 metric: euclid
0.949612, cells: 1 x 1, blocks: 1 x 8, stride: 1 x 1, margin: 6, bins: 8 sign: 1, params.C: 0.700000 metric: euclid
0.949612, cells: 1 x 1, blocks: 1 x 8, stride: 1 x 1, margin: 6, bins: 8 sign: 1, params.C: 0.750000 metric: euclid
0.950388, cells: 1 x 1, blocks: 1 x 8, stride: 1 x 1, margin: 6, bins: 8 sign: 1, params.C: 0.800000 metric: euclid
0.947287, cells: 1 x 1, blocks: 1 x 8, stride: 1 x 1, margin: 6, bins: 8 sign: 1, params.C: 0.200000 metric: max
0.944186, cells: 1 x 1, blocks: 1 x 8, stride: 1 x 1, margin: 6, bins: 8 sign: 1, params.C: 0.500000 metric: max
0.944186, cells: 1 x 1, blocks: 1 x 8, stride: 1 x 1, margin: 6, bins: 8 sign: 1, params.C: 0.700000 metric: max
0.944186, cells: 1 x 1, blocks: 1 x 8, stride: 1 x 1, margin: 6, bins: 8 sign: 1, params.C: 0.750000 metric: max
0.944186, cells: 1 x 1, blocks: 1 x 8, stride: 1 x 1, margin: 6, bins: 8 sign: 1, params.C: 0.800000 metric: max
0.956589, cells: 1 x 1, blocks: 1 x 8, stride: 1 x 1, margin: 6, bins: 8 sign: 1, params.C: 0.200000 metric: sum
0.955039, cells: 1 x 1, blocks: 1 x 8, stride: 1 x 1, margin: 6, bins: 8 sign: 1, params.C: 0.500000 metric: sum
0.955039, cells: 1 x 1, blocks: 1 x 8, stride: 1 x 1, margin: 6, bins: 8 sign: 1, params.C: 0.700000 metric: sum
0.954264, cells: 1 x 1, blocks: 1 x 8, stride: 1 x 1, margin: 6, bins: 8 sign: 1, params.C: 0.750000 metric: sum
0.955039, cells: 1 x 1, blocks: 1 x 8, stride: 1 x 1, margin: 6, bins: 8 sign: 1, params.C: 0.800000 metric: sum
0.952713, cells: 1 x 1, blocks: 1 x 9, stride: 1 x 1, margin: 6, bins: 18 sign: 1, params.C: 0.200000 metric: euclid
0.951163, cells: 1 x 1, blocks: 1 x 9, stride: 1 x 1, margin: 6, bins: 18 sign: 1, params.C: 0.500000 metric: euclid
0.951163, cells: 1 x 1, blocks: 1 x 9, stride: 1 x 1, margin: 6, bins: 18 sign: 1, params.C: 0.700000 metric: euclid
0.951163, cells: 1 x 1, blocks: 1 x 9, stride: 1 x 1, margin: 6, bins: 18 sign: 1, params.C: 0.750000 metric: euclid
0.950388, cells: 1 x 1, blocks: 1 x 9, stride: 1 x 1, margin: 6, bins: 18 sign: 1, params.C: 0.800000 metric: euclid
0.949612, cells: 1 x 1, blocks: 1 x 9, stride: 1 x 1, margin: 6, bins: 18 sign: 1, params.C: 0.200000 metric: max
0.951163, cells: 1 x 1, blocks: 1 x 9, stride: 1 x 1, margin: 6, bins: 18 sign: 1, params.C: 0.500000 metric: max
0.951163, cells: 1 x 1, blocks: 1 x 9, stride: 1 x 1, margin: 6, bins: 18 sign: 1, params.C: 0.700000 metric: max
0.951163, cells: 1 x 1, blocks: 1 x 9, stride: 1 x 1, margin: 6, bins: 18 sign: 1, params.C: 0.750000 metric: max
0.951163, cells: 1 x 1, blocks: 1 x 9, stride: 1 x 1, margin: 6, bins: 18 sign: 1, params.C: 0.800000 metric: max
0.956589, cells: 1 x 1, blocks: 1 x 9, stride: 1 x 1, margin: 6, bins: 18 sign: 1, params.C: 0.200000 metric: sum
0.955039, cells: 1 x 1, blocks: 1 x 9, stride: 1 x 1, margin: 6, bins: 18 sign: 1, params.C: 0.500000 metric: sum
0.955039, cells: 1 x 1, blocks: 1 x 9, stride: 1 x 1, margin: 6, bins: 18 sign: 1, params.C: 0.700000 metric: sum
0.955039, cells: 1 x 1, blocks: 1 x 9, stride: 1 x 1, margin: 6, bins: 18 sign: 1, params.C: 0.750000 metric: sum
0.954264, cells: 1 x 1, blocks: 1 x 9, stride: 1 x 1, margin: 6, bins: 18 sign: 1, params.C: 0.800000 metric: sum
0.955814, cells: 1 x 1, blocks: 1 x 9, stride: 1 x 1, margin: 6, bins: 10 sign: 1, params.C: 0.200000 metric: euclid
0.956589, cells: 1 x 1, blocks: 1 x 9, stride: 1 x 1, margin: 6, bins: 10 sign: 1, params.C: 0.500000 metric: euclid
0.958140, cells: 1 x 1, blocks: 1 x 9, stride: 1 x 1, margin: 6, bins: 10 sign: 1, params.C: 0.700000 metric: euclid
0.958140, cells: 1 x 1, blocks: 1 x 9, stride: 1 x 1, margin: 6, bins: 10 sign: 1, params.C: 0.750000 metric: euclid
0.958140, cells: 1 x 1, blocks: 1 x 9, stride: 1 x 1, margin: 6, bins: 10 sign: 1, params.C: 0.800000 metric: euclid
0.950388, cells: 1 x 1, blocks: 1 x 9, stride: 1 x 1, margin: 6, bins: 10 sign: 1, params.C: 0.200000 metric: max
0.948062, cells: 1 x 1, blocks: 1 x 9, stride: 1 x 1, margin: 6, bins: 10 sign: 1, params.C: 0.500000 metric: max
0.947287, cells: 1 x 1, blocks: 1 x 9, stride: 1 x 1, margin: 6, bins: 10 sign: 1, params.C: 0.700000 metric: max
0.947287, cells: 1 x 1, blocks: 1 x 9, stride: 1 x 1, margin: 6, bins: 10 sign: 1, params.C: 0.750000 metric: max
0.947287, cells: 1 x 1, blocks: 1 x 9, stride: 1 x 1, margin: 6, bins: 10 sign: 1, params.C: 0.800000 metric: max
0.955814, cells: 1 x 1, blocks: 1 x 9, stride: 1 x 1, margin: 6, bins: 10 sign: 1, params.C: 0.200000 metric: sum
0.955814, cells: 1 x 1, blocks: 1 x 9, stride: 1 x 1, margin: 6, bins: 10 sign: 1, params.C: 0.500000 metric: sum
0.956589, cells: 1 x 1, blocks: 1 x 9, stride: 1 x 1, margin: 6, bins: 10 sign: 1, params.C: 0.700000 metric: sum
0.957364, cells: 1 x 1, blocks: 1 x 9, stride: 1 x 1, margin: 6, bins: 10 sign: 1, params.C: 0.750000 metric: sum
0.957364, cells: 1 x 1, blocks: 1 x 9, stride: 1 x 1, margin: 6, bins: 10 sign: 1, params.C: 0.800000 metric: sum
0.959690, cells: 1 x 1, blocks: 1 x 9, stride: 1 x 1, margin: 6, bins: 9 sign: 1, params.C: 0.200000 metric: euclid
0.954264, cells: 1 x 1, blocks: 1 x 9, stride: 1 x 1, margin: 6, bins: 9 sign: 1, params.C: 0.500000 metric: euclid
0.951938, cells: 1 x 1, blocks: 1 x 9, stride: 1 x 1, margin: 6, bins: 9 sign: 1, params.C: 0.700000 metric: euclid
0.951938, cells: 1 x 1, blocks: 1 x 9, stride: 1 x 1, margin: 6, bins: 9 sign: 1, params.C: 0.750000 metric: euclid
0.951163, cells: 1 x 1, blocks: 1 x 9, stride: 1 x 1, margin: 6, bins: 9 sign: 1, params.C: 0.800000 metric: euclid
0.957364, cells: 1 x 1, blocks: 1 x 9, stride: 1 x 1, margin: 6, bins: 9 sign: 1, params.C: 0.200000 metric: max
0.956589, cells: 1 x 1, blocks: 1 x 9, stride: 1 x 1, margin: 6, bins: 9 sign: 1, params.C: 0.500000 metric: max
0.955814, cells: 1 x 1, blocks: 1 x 9, stride: 1 x 1, margin: 6, bins: 9 sign: 1, params.C: 0.700000 metric: max
0.955039, cells: 1 x 1, blocks: 1 x 9, stride: 1 x 1, margin: 6, bins: 9 sign: 1, params.C: 0.750000 metric: max
0.954264, cells: 1 x 1, blocks: 1 x 9, stride: 1 x 1, margin: 6, bins: 9 sign: 1, params.C: 0.800000 metric: max
0.957364, cells: 1 x 1, blocks: 1 x 9, stride: 1 x 1, margin: 6, bins: 9 sign: 1, params.C: 0.200000 metric: sum
0.960465, cells: 1 x 1, blocks: 1 x 9, stride: 1 x 1, margin: 6, bins: 9 sign: 1, params.C: 0.500000 metric: sum
0.961240, cells: 1 x 1, blocks: 1 x 9, stride: 1 x 1, margin: 6, bins: 9 sign: 1, params.C: 0.700000 metric: sum
0.962016, cells: 1 x 1, blocks: 1 x 9, stride: 1 x 1, margin: 6, bins: 9 sign: 1, params.C: 0.750000 metric: sum
0.962016, cells: 1 x 1, blocks: 1 x 9, stride: 1 x 1, margin: 6, bins: 9 sign: 1, params.C: 0.800000 metric: sum
0.948062, cells: 1 x 1, blocks: 1 x 9, stride: 1 x 1, margin: 6, bins: 8 sign: 1, params.C: 0.200000 metric: euclid
0.944961, cells: 1 x 1, blocks: 1 x 9, stride: 1 x 1, margin: 6, bins: 8 sign: 1, params.C: 0.500000 metric: euclid
0.944961, cells: 1 x 1, blocks: 1 x 9, stride: 1 x 1, margin: 6, bins: 8 sign: 1, params.C: 0.700000 metric: euclid
0.944961, cells: 1 x 1, blocks: 1 x 9, stride: 1 x 1, margin: 6, bins: 8 sign: 1, params.C: 0.750000 metric: euclid
0.944961, cells: 1 x 1, blocks: 1 x 9, stride: 1 x 1, margin: 6, bins: 8 sign: 1, params.C: 0.800000 metric: euclid
0.942636, cells: 1 x 1, blocks: 1 x 9, stride: 1 x 1, margin: 6, bins: 8 sign: 1, params.C: 0.200000 metric: max
0.944186, cells: 1 x 1, blocks: 1 x 9, stride: 1 x 1, margin: 6, bins: 8 sign: 1, params.C: 0.500000 metric: max
0.942636, cells: 1 x 1, blocks: 1 x 9, stride: 1 x 1, margin: 6, bins: 8 sign: 1, params.C: 0.700000 metric: max
0.942636, cells: 1 x 1, blocks: 1 x 9, stride: 1 x 1, margin: 6, bins: 8 sign: 1, params.C: 0.750000 metric: max
0.941085, cells: 1 x 1, blocks: 1 x 9, stride: 1 x 1, margin: 6, bins: 8 sign: 1, params.C: 0.800000 metric: max
0.948837, cells: 1 x 1, blocks: 1 x 9, stride: 1 x 1, margin: 6, bins: 8 sign: 1, params.C: 0.200000 metric: sum
0.952713, cells: 1 x 1, blocks: 1 x 9, stride: 1 x 1, margin: 6, bins: 8 sign: 1, params.C: 0.500000 metric: sum
0.951938, cells: 1 x 1, blocks: 1 x 9, stride: 1 x 1, margin: 6, bins: 8 sign: 1, params.C: 0.700000 metric: sum
0.951938, cells: 1 x 1, blocks: 1 x 9, stride: 1 x 1, margin: 6, bins: 8 sign: 1, params.C: 0.750000 metric: sum
0.951938, cells: 1 x 1, blocks: 1 x 9, stride: 1 x 1, margin: 6, bins: 8 sign: 1, params.C: 0.800000 metric: sum
0.941085, cells: 1 x 1, blocks: 1 x 10, stride: 1 x 1, margin: 6, bins: 18 sign: 1, params.C: 0.200000 metric: euclid
0.938760, cells: 1 x 1, blocks: 1 x 10, stride: 1 x 1, margin: 6, bins: 18 sign: 1, params.C: 0.500000 metric: euclid
0.937984, cells: 1 x 1, blocks: 1 x 10, stride: 1 x 1, margin: 6, bins: 18 sign: 1, params.C: 0.700000 metric: euclid
0.937209, cells: 1 x 1, blocks: 1 x 10, stride: 1 x 1, margin: 6, bins: 18 sign: 1, params.C: 0.750000 metric: euclid
0.937209, cells: 1 x 1, blocks: 1 x 10, stride: 1 x 1, margin: 6, bins: 18 sign: 1, params.C: 0.800000 metric: euclid
0.939535, cells: 1 x 1, blocks: 1 x 10, stride: 1 x 1, margin: 6, bins: 18 sign: 1, params.C: 0.200000 metric: max
0.938760, cells: 1 x 1, blocks: 1 x 10, stride: 1 x 1, margin: 6, bins: 18 sign: 1, params.C: 0.500000 metric: max
0.939535, cells: 1 x 1, blocks: 1 x 10, stride: 1 x 1, margin: 6, bins: 18 sign: 1, params.C: 0.700000 metric: max
0.938760, cells: 1 x 1, blocks: 1 x 10, stride: 1 x 1, margin: 6, bins: 18 sign: 1, params.C: 0.750000 metric: max
0.937984, cells: 1 x 1, blocks: 1 x 10, stride: 1 x 1, margin: 6, bins: 18 sign: 1, params.C: 0.800000 metric: max
0.942636, cells: 1 x 1, blocks: 1 x 10, stride: 1 x 1, margin: 6, bins: 18 sign: 1, params.C: 0.200000 metric: sum
0.942636, cells: 1 x 1, blocks: 1 x 10, stride: 1 x 1, margin: 6, bins: 18 sign: 1, params.C: 0.500000 metric: sum
0.941860, cells: 1 x 1, blocks: 1 x 10, stride: 1 x 1, margin: 6, bins: 18 sign: 1, params.C: 0.700000 metric: sum
0.941860, cells: 1 x 1, blocks: 1 x 10, stride: 1 x 1, margin: 6, bins: 18 sign: 1, params.C: 0.750000 metric: sum
0.941860, cells: 1 x 1, blocks: 1 x 10, stride: 1 x 1, margin: 6, bins: 18 sign: 1, params.C: 0.800000 metric: sum
0.945736, cells: 1 x 1, blocks: 1 x 10, stride: 1 x 1, margin: 6, bins: 10 sign: 1, params.C: 0.200000 metric: euclid
0.943411, cells: 1 x 1, blocks: 1 x 10, stride: 1 x 1, margin: 6, bins: 10 sign: 1, params.C: 0.500000 metric: euclid
0.941085, cells: 1 x 1, blocks: 1 x 10, stride: 1 x 1, margin: 6, bins: 10 sign: 1, params.C: 0.700000 metric: euclid
0.940310, cells: 1 x 1, blocks: 1 x 10, stride: 1 x 1, margin: 6, bins: 10 sign: 1, params.C: 0.750000 metric: euclid
0.940310, cells: 1 x 1, blocks: 1 x 10, stride: 1 x 1, margin: 6, bins: 10 sign: 1, params.C: 0.800000 metric: euclid
0.941860, cells: 1 x 1, blocks: 1 x 10, stride: 1 x 1, margin: 6, bins: 10 sign: 1, params.C: 0.200000 metric: max
0.939535, cells: 1 x 1, blocks: 1 x 10, stride: 1 x 1, margin: 6, bins: 10 sign: 1, params.C: 0.500000 metric: max
0.940310, cells: 1 x 1, blocks: 1 x 10, stride: 1 x 1, margin: 6, bins: 10 sign: 1, params.C: 0.700000 metric: max
0.939535, cells: 1 x 1, blocks: 1 x 10, stride: 1 x 1, margin: 6, bins: 10 sign: 1, params.C: 0.750000 metric: max
0.939535, cells: 1 x 1, blocks: 1 x 10, stride: 1 x 1, margin: 6, bins: 10 sign: 1, params.C: 0.800000 metric: max
0.940310, cells: 1 x 1, blocks: 1 x 10, stride: 1 x 1, margin: 6, bins: 10 sign: 1, params.C: 0.200000 metric: sum
0.944961, cells: 1 x 1, blocks: 1 x 10, stride: 1 x 1, margin: 6, bins: 10 sign: 1, params.C: 0.500000 metric: sum
0.943411, cells: 1 x 1, blocks: 1 x 10, stride: 1 x 1, margin: 6, bins: 10 sign: 1, params.C: 0.700000 metric: sum
0.943411, cells: 1 x 1, blocks: 1 x 10, stride: 1 x 1, margin: 6, bins: 10 sign: 1, params.C: 0.750000 metric: sum
0.944186, cells: 1 x 1, blocks: 1 x 10, stride: 1 x 1, margin: 6, bins: 10 sign: 1, params.C: 0.800000 metric: sum
0.947287, cells: 1 x 1, blocks: 1 x 10, stride: 1 x 1, margin: 6, bins: 9 sign: 1, params.C: 0.200000 metric: euclid
0.946512, cells: 1 x 1, blocks: 1 x 10, stride: 1 x 1, margin: 6, bins: 9 sign: 1, params.C: 0.500000 metric: euclid
0.941860, cells: 1 x 1, blocks: 1 x 10, stride: 1 x 1, margin: 6, bins: 9 sign: 1, params.C: 0.700000 metric: euclid
0.942636, cells: 1 x 1, blocks: 1 x 10, stride: 1 x 1, margin: 6, bins: 9 sign: 1, params.C: 0.750000 metric: euclid
0.942636, cells: 1 x 1, blocks: 1 x 10, stride: 1 x 1, margin: 6, bins: 9 sign: 1, params.C: 0.800000 metric: euclid
0.937209, cells: 1 x 1, blocks: 1 x 10, stride: 1 x 1, margin: 6, bins: 9 sign: 1, params.C: 0.200000 metric: max
0.936434, cells: 1 x 1, blocks: 1 x 10, stride: 1 x 1, margin: 6, bins: 9 sign: 1, params.C: 0.500000 metric: max
0.936434, cells: 1 x 1, blocks: 1 x 10, stride: 1 x 1, margin: 6, bins: 9 sign: 1, params.C: 0.700000 metric: max
0.935659, cells: 1 x 1, blocks: 1 x 10, stride: 1 x 1, margin: 6, bins: 9 sign: 1, params.C: 0.750000 metric: max
0.935659, cells: 1 x 1, blocks: 1 x 10, stride: 1 x 1, margin: 6, bins: 9 sign: 1, params.C: 0.800000 metric: max
0.944961, cells: 1 x 1, blocks: 1 x 10, stride: 1 x 1, margin: 6, bins: 9 sign: 1, params.C: 0.200000 metric: sum
0.947287, cells: 1 x 1, blocks: 1 x 10, stride: 1 x 1, margin: 6, bins: 9 sign: 1, params.C: 0.500000 metric: sum
0.948062, cells: 1 x 1, blocks: 1 x 10, stride: 1 x 1, margin: 6, bins: 9 sign: 1, params.C: 0.700000 metric: sum
0.948062, cells: 1 x 1, blocks: 1 x 10, stride: 1 x 1, margin: 6, bins: 9 sign: 1, params.C: 0.750000 metric: sum
0.948837, cells: 1 x 1, blocks: 1 x 10, stride: 1 x 1, margin: 6, bins: 9 sign: 1, params.C: 0.800000 metric: sum
0.941085, cells: 1 x 1, blocks: 1 x 10, stride: 1 x 1, margin: 6, bins: 8 sign: 1, params.C: 0.200000 metric: euclid
0.937984, cells: 1 x 1, blocks: 1 x 10, stride: 1 x 1, margin: 6, bins: 8 sign: 1, params.C: 0.500000 metric: euclid
0.937209, cells: 1 x 1, blocks: 1 x 10, stride: 1 x 1, margin: 6, bins: 8 sign: 1, params.C: 0.700000 metric: euclid
0.937209, cells: 1 x 1, blocks: 1 x 10, stride: 1 x 1, margin: 6, bins: 8 sign: 1, params.C: 0.750000 metric: euclid
0.936434, cells: 1 x 1, blocks: 1 x 10, stride: 1 x 1, margin: 6, bins: 8 sign: 1, params.C: 0.800000 metric: euclid
0.937209, cells: 1 x 1, blocks: 1 x 10, stride: 1 x 1, margin: 6, bins: 8 sign: 1, params.C: 0.200000 metric: max
0.931783, cells: 1 x 1, blocks: 1 x 10, stride: 1 x 1, margin: 6, bins: 8 sign: 1, params.C: 0.500000 metric: max
0.931783, cells: 1 x 1, blocks: 1 x 10, stride: 1 x 1, margin: 6, bins: 8 sign: 1, params.C: 0.700000 metric: max
0.931783, cells: 1 x 1, blocks: 1 x 10, stride: 1 x 1, margin: 6, bins: 8 sign: 1, params.C: 0.750000 metric: max
0.931783, cells: 1 x 1, blocks: 1 x 10, stride: 1 x 1, margin: 6, bins: 8 sign: 1, params.C: 0.800000 metric: max
0.940310, cells: 1 x 1, blocks: 1 x 10, stride: 1 x 1, margin: 6, bins: 8 sign: 1, params.C: 0.200000 metric: sum
0.941085, cells: 1 x 1, blocks: 1 x 10, stride: 1 x 1, margin: 6, bins: 8 sign: 1, params.C: 0.500000 metric: sum
0.938760, cells: 1 x 1, blocks: 1 x 10, stride: 1 x 1, margin: 6, bins: 8 sign: 1, params.C: 0.700000 metric: sum
0.939535, cells: 1 x 1, blocks: 1 x 10, stride: 1 x 1, margin: 6, bins: 8 sign: 1, params.C: 0.750000 metric: sum
0.939535, cells: 1 x 1, blocks: 1 x 10, stride: 1 x 1, margin: 6, bins: 8 sign: 1, params.C: 0.800000 metric: sum
0.916279, cells: 1 x 1, blocks: 1 x 11, stride: 1 x 1, margin: 6, bins: 18 sign: 1, params.C: 0.200000 metric: euclid
0.917054, cells: 1 x 1, blocks: 1 x 11, stride: 1 x 1, margin: 6, bins: 18 sign: 1, params.C: 0.500000 metric: euclid
0.915504, cells: 1 x 1, blocks: 1 x 11, stride: 1 x 1, margin: 6, bins: 18 sign: 1, params.C: 0.700000 metric: euclid
0.915504, cells: 1 x 1, blocks: 1 x 11, stride: 1 x 1, margin: 6, bins: 18 sign: 1, params.C: 0.750000 metric: euclid
0.913953, cells: 1 x 1, blocks: 1 x 11, stride: 1 x 1, margin: 6, bins: 18 sign: 1, params.C: 0.800000 metric: euclid
0.910853, cells: 1 x 1, blocks: 1 x 11, stride: 1 x 1, margin: 6, bins: 18 sign: 1, params.C: 0.200000 metric: max
0.906977, cells: 1 x 1, blocks: 1 x 11, stride: 1 x 1, margin: 6, bins: 18 sign: 1, params.C: 0.500000 metric: max
0.906977, cells: 1 x 1, blocks: 1 x 11, stride: 1 x 1, margin: 6, bins: 18 sign: 1, params.C: 0.700000 metric: max
0.906977, cells: 1 x 1, blocks: 1 x 11, stride: 1 x 1, margin: 6, bins: 18 sign: 1, params.C: 0.750000 metric: max
0.908527, cells: 1 x 1, blocks: 1 x 11, stride: 1 x 1, margin: 6, bins: 18 sign: 1, params.C: 0.800000 metric: max
0.910078, cells: 1 x 1, blocks: 1 x 11, stride: 1 x 1, margin: 6, bins: 18 sign: 1, params.C: 0.200000 metric: sum
0.912403, cells: 1 x 1, blocks: 1 x 11, stride: 1 x 1, margin: 6, bins: 18 sign: 1, params.C: 0.500000 metric: sum
0.913178, cells: 1 x 1, blocks: 1 x 11, stride: 1 x 1, margin: 6, bins: 18 sign: 1, params.C: 0.700000 metric: sum
0.912403, cells: 1 x 1, blocks: 1 x 11, stride: 1 x 1, margin: 6, bins: 18 sign: 1, params.C: 0.750000 metric: sum
0.912403, cells: 1 x 1, blocks: 1 x 11, stride: 1 x 1, margin: 6, bins: 18 sign: 1, params.C: 0.800000 metric: sum
0.920930, cells: 1 x 1, blocks: 1 x 11, stride: 1 x 1, margin: 6, bins: 10 sign: 1, params.C: 0.200000 metric: euclid
0.917829, cells: 1 x 1, blocks: 1 x 11, stride: 1 x 1, margin: 6, bins: 10 sign: 1, params.C: 0.500000 metric: euclid
