0.956589, cells: 1 x 1, blocks: 1 x 1, stride: 1 x 1, margin: 5, bins: 18 sign: 1, params.C: 0.700000 metric: euclid
0.951163, cells: 1 x 1, blocks: 1 x 1, stride: 1 x 1, margin: 5, bins: 18 sign: 1, params.C: 0.700000 metric: max
0.958140, cells: 1 x 1, blocks: 1 x 1, stride: 1 x 1, margin: 5, bins: 18 sign: 1, params.C: 0.700000 metric: sum
0.957364, cells: 1 x 1, blocks: 1 x 1, stride: 1 x 1, margin: 5, bins: 18 sign: 1, params.C: 0.700000 metric: none
0.958140, cells: 1 x 1, blocks: 1 x 1, stride: 1 x 1, margin: 5, bins: 12 sign: 1, params.C: 0.700000 metric: euclid
0.948062, cells: 1 x 1, blocks: 1 x 1, stride: 1 x 1, margin: 5, bins: 12 sign: 1, params.C: 0.700000 metric: max
0.963566, cells: 1 x 1, blocks: 1 x 1, stride: 1 x 1, margin: 5, bins: 12 sign: 1, params.C: 0.700000 metric: sum
0.955039, cells: 1 x 1, blocks: 1 x 1, stride: 1 x 1, margin: 5, bins: 12 sign: 1, params.C: 0.700000 metric: none
0.970543, cells: 1 x 1, blocks: 1 x 1, stride: 1 x 1, margin: 5, bins: 9 sign: 1, params.C: 0.700000 metric: euclid
0.964341, cells: 1 x 1, blocks: 1 x 1, stride: 1 x 1, margin: 5, bins: 9 sign: 1, params.C: 0.700000 metric: max
0.970543, cells: 1 x 1, blocks: 1 x 1, stride: 1 x 1, margin: 5, bins: 9 sign: 1, params.C: 0.700000 metric: sum
0.964341, cells: 1 x 1, blocks: 1 x 1, stride: 1 x 1, margin: 5, bins: 9 sign: 1, params.C: 0.700000 metric: none
0.957364, cells: 1 x 1, blocks: 1 x 2, stride: 1 x 1, margin: 5, bins: 18 sign: 1, params.C: 0.700000 metric: euclid
0.950388, cells: 1 x 1, blocks: 1 x 2, stride: 1 x 1, margin: 5, bins: 18 sign: 1, params.C: 0.700000 metric: max
0.959690, cells: 1 x 1, blocks: 1 x 2, stride: 1 x 1, margin: 5, bins: 18 sign: 1, params.C: 0.700000 metric: sum
0.955814, cells: 1 x 1, blocks: 1 x 2, stride: 1 x 1, margin: 5, bins: 18 sign: 1, params.C: 0.700000 metric: none
0.958915, cells: 1 x 1, blocks: 1 x 2, stride: 1 x 1, margin: 5, bins: 12 sign: 1, params.C: 0.700000 metric: euclid
0.952713, cells: 1 x 1, blocks: 1 x 2, stride: 1 x 1, margin: 5, bins: 12 sign: 1, params.C: 0.700000 metric: max
0.964341, cells: 1 x 1, blocks: 1 x 2, stride: 1 x 1, margin: 5, bins: 12 sign: 1, params.C: 0.700000 metric: sum
0.959690, cells: 1 x 1, blocks: 1 x 2, stride: 1 x 1, margin: 5, bins: 12 sign: 1, params.C: 0.700000 metric: none
0.972093, cells: 1 x 1, blocks: 1 x 2, stride: 1 x 1, margin: 5, bins: 9 sign: 1, params.C: 0.700000 metric: euclid
0.965891, cells: 1 x 1, blocks: 1 x 2, stride: 1 x 1, margin: 5, bins: 9 sign: 1, params.C: 0.700000 metric: max
0.969767, cells: 1 x 1, blocks: 1 x 2, stride: 1 x 1, margin: 5, bins: 9 sign: 1, params.C: 0.700000 metric: sum
0.962791, cells: 1 x 1, blocks: 1 x 2, stride: 1 x 1, margin: 5, bins: 9 sign: 1, params.C: 0.700000 metric: none
0.960465, cells: 1 x 1, blocks: 1 x 3, stride: 1 x 1, margin: 5, bins: 18 sign: 1, params.C: 0.700000 metric: euclid
0.952713, cells: 1 x 1, blocks: 1 x 3, stride: 1 x 1, margin: 5, bins: 18 sign: 1, params.C: 0.700000 metric: max
0.960465, cells: 1 x 1, blocks: 1 x 3, stride: 1 x 1, margin: 5, bins: 18 sign: 1, params.C: 0.700000 metric: sum
0.954264, cells: 1 x 1, blocks: 1 x 3, stride: 1 x 1, margin: 5, bins: 18 sign: 1, params.C: 0.700000 metric: none
0.958140, cells: 1 x 1, blocks: 1 x 3, stride: 1 x 1, margin: 5, bins: 12 sign: 1, params.C: 0.700000 metric: euclid
0.955039, cells: 1 x 1, blocks: 1 x 3, stride: 1 x 1, margin: 5, bins: 12 sign: 1, params.C: 0.700000 metric: max
0.963566, cells: 1 x 1, blocks: 1 x 3, stride: 1 x 1, margin: 5, bins: 12 sign: 1, params.C: 0.700000 metric: sum
0.961240, cells: 1 x 1, blocks: 1 x 3, stride: 1 x 1, margin: 5, bins: 12 sign: 1, params.C: 0.700000 metric: none
0.970543, cells: 1 x 1, blocks: 1 x 3, stride: 1 x 1, margin: 5, bins: 9 sign: 1, params.C: 0.700000 metric: euclid
0.962791, cells: 1 x 1, blocks: 1 x 3, stride: 1 x 1, margin: 5, bins: 9 sign: 1, params.C: 0.700000 metric: max
0.970543, cells: 1 x 1, blocks: 1 x 3, stride: 1 x 1, margin: 5, bins: 9 sign: 1, params.C: 0.700000 metric: sum
0.964341, cells: 1 x 1, blocks: 1 x 3, stride: 1 x 1, margin: 5, bins: 9 sign: 1, params.C: 0.700000 metric: none
0.960465, cells: 1 x 1, blocks: 1 x 4, stride: 1 x 1, margin: 5, bins: 18 sign: 1, params.C: 0.700000 metric: euclid
0.953488, cells: 1 x 1, blocks: 1 x 4, stride: 1 x 1, margin: 5, bins: 18 sign: 1, params.C: 0.700000 metric: max
0.961240, cells: 1 x 1, blocks: 1 x 4, stride: 1 x 1, margin: 5, bins: 18 sign: 1, params.C: 0.700000 metric: sum
0.954264, cells: 1 x 1, blocks: 1 x 4, stride: 1 x 1, margin: 5, bins: 18 sign: 1, params.C: 0.700000 metric: none
0.957364, cells: 1 x 1, blocks: 1 x 4, stride: 1 x 1, margin: 5, bins: 12 sign: 1, params.C: 0.700000 metric: euclid
0.955814, cells: 1 x 1, blocks: 1 x 4, stride: 1 x 1, margin: 5, bins: 12 sign: 1, params.C: 0.700000 metric: max
0.962016, cells: 1 x 1, blocks: 1 x 4, stride: 1 x 1, margin: 5, bins: 12 sign: 1, params.C: 0.700000 metric: sum
0.955814, cells: 1 x 1, blocks: 1 x 4, stride: 1 x 1, margin: 5, bins: 12 sign: 1, params.C: 0.700000 metric: none
0.970543, cells: 1 x 1, blocks: 1 x 4, stride: 1 x 1, margin: 5, bins: 9 sign: 1, params.C: 0.700000 metric: euclid
0.962016, cells: 1 x 1, blocks: 1 x 4, stride: 1 x 1, margin: 5, bins: 9 sign: 1, params.C: 0.700000 metric: max
0.968217, cells: 1 x 1, blocks: 1 x 4, stride: 1 x 1, margin: 5, bins: 9 sign: 1, params.C: 0.700000 metric: sum
0.964341, cells: 1 x 1, blocks: 1 x 4, stride: 1 x 1, margin: 5, bins: 9 sign: 1, params.C: 0.700000 metric: none
0.958915, cells: 1 x 1, blocks: 1 x 5, stride: 1 x 1, margin: 5, bins: 18 sign: 1, params.C: 0.700000 metric: euclid
0.952713, cells: 1 x 1, blocks: 1 x 5, stride: 1 x 1, margin: 5, bins: 18 sign: 1, params.C: 0.700000 metric: max
0.962791, cells: 1 x 1, blocks: 1 x 5, stride: 1 x 1, margin: 5, bins: 18 sign: 1, params.C: 0.700000 metric: sum
0.950388, cells: 1 x 1, blocks: 1 x 5, stride: 1 x 1, margin: 5, bins: 18 sign: 1, params.C: 0.700000 metric: none
0.953488, cells: 1 x 1, blocks: 1 x 5, stride: 1 x 1, margin: 5, bins: 12 sign: 1, params.C: 0.700000 metric: euclid
0.952713, cells: 1 x 1, blocks: 1 x 5, stride: 1 x 1, margin: 5, bins: 12 sign: 1, params.C: 0.700000 metric: max
0.962016, cells: 1 x 1, blocks: 1 x 5, stride: 1 x 1, margin: 5, bins: 12 sign: 1, params.C: 0.700000 metric: sum
0.954264, cells: 1 x 1, blocks: 1 x 5, stride: 1 x 1, margin: 5, bins: 12 sign: 1, params.C: 0.700000 metric: none
0.968217, cells: 1 x 1, blocks: 1 x 5, stride: 1 x 1, margin: 5, bins: 9 sign: 1, params.C: 0.700000 metric: euclid
0.960465, cells: 1 x 1, blocks: 1 x 5, stride: 1 x 1, margin: 5, bins: 9 sign: 1, params.C: 0.700000 metric: max
0.968992, cells: 1 x 1, blocks: 1 x 5, stride: 1 x 1, margin: 5, bins: 9 sign: 1, params.C: 0.700000 metric: sum
0.960465, cells: 1 x 1, blocks: 1 x 5, stride: 1 x 1, margin: 5, bins: 9 sign: 1, params.C: 0.700000 metric: none
